random/ex0.top,5,10,6,8,2,4,12801,234,200,8.229369,7.244512,0.008174,0.099481,0.000000,0.000001
random/ex1.top,5,10,7,9,2,4,20067,243,210,18.813247,17.188752,0.013460,0.150824,0.000001,0.000000
random/ex10.top,5,4,7,9,2,4,77,77,1,0.012414,0.010630,0.000030,0.000363,0.000001,0.000000
random/ex100.top,5,7,7,9,2,4,2499,243,17,0.693315,0.577799,0.001165,0.012936,0.000000,0.000000
random/ex101.top,5,7,7,9,2,4,916,207,11,0.230193,0.187508,0.000474,0.005517,0.000000,0.000001
random/ex102.top,5,6,8,11,3,4,396,172,6,0.081449,0.065979,0.000168,0.002318,0.000000,0.000001
random/ex103.top,5,5,9,11,2,4,144,144,1,0.027325,0.022474,0.000060,0.000801,0.000001,0.000000
random/ex104.top,5,6,4,6,2,4,455,243,3,0.093078,0.074448,0.000171,0.002652,0.000000,0.000001
random/ex105.top,6,10,7,9,2,4,3213,405,22,1.030229,0.792847,0.001927,0.032917,0.000001,0.000000
random/ex106.top,6,8,8,11,3,4,2529,884,8,0.773138,0.617340,0.001351,0.023866,0.000001,0.000000
random/ex107.top,6,9,5,7,2,4,5721,822,23,2.235746,1.798060,0.002942,0.060696,0.000000,0.000001
random/ex108.top,6,8,8,10,2,4,1310,862,4,0.367633,0.293696,0.000670,0.013120,0.000001,0.000000
random/ex109.top,5,8,7,9,2,4,4179,240,56,1.505132,1.279886,0.002239,0.026182,0.000000,0.000001
random/ex11.top,5,11,5,7,2,4,16373,240,330,14.364082,12.974727,0.012591,0.145086,0.000001,0.000000
random/ex110.top,8,8,5,7,2,4,1553,1553,1,0.416618,0.313363,0.000826,0.029150,0.000001,0.000000
random/ex111.top,5,4,8,11,3,4,72,72,1,0.012714,0.010834,0.000028,0.000355,0.000001,0.000000
random/ex112.top,5,6,7,10,3,4,720,108,15,0.153012,0.125834,0.000356,0.003728,0.000000,0.000001
random/ex113.top,5,5,8,10,2,4,188,54,5,0.034008,0.028429,0.000073,0.000924,0.000000,0.000001
random/ex114.top,5,5,9,12,3,4,108,72,2,0.019105,0.015798,0.000042,0.000595,0.000000,0.000001
random/ex115.top,6,7,9,11,2,4,1030,594,3,0.257333,0.204052,0.000494,0.011880,0.000001,0.000000
random/ex116.top,6,6,5,7,2,4,402,402,1,0.083212,0.065585,0.000175,0.003362,0.000001,0.000000
random/ex117.top,6,6,8,10,2,4,1107,1107,1,0.267734,0.222431,0.000446,0.009375,0.000001,0.000000
random/ex118.top,6,11,6,9,3,4,24185,972,83,20.610333,18.490560,0.018447,0.280220,0.000001,0.000000
random/ex119.top,5,6,7,9,2,4,499,153,6,0.101508,0.082285,0.000209,0.002583,0.000001,0.000000
random/ex12.top,5,9,6,8,2,4,4752,303,67,1.833087,1.524192,0.002504,0.033915,0.000000,0.000000
random/ex120.top,6,7,6,8,2,4,2517,309,15,0.659256,0.536469,0.001229,0.018656,0.000000,0.000001
random/ex121.top,7,11,3,5,2,4,13301,1893,35,7.050005,5.850338,0.008321,0.205181,0.000000,0.000001
random/ex122.top,6,9,5,7,2,4,1887,371,15,0.588194,0.464408,0.000977,0.017889,0.000001,0.000000
random/ex123.top,6,7,9,11,2,4,624,243,5,0.144358,0.116163,0.000322,0.004909,0.000001,0.000000
random/ex124.top,6,6,7,9,2,4,387,153,5,0.071555,0.056957,0.000176,0.002571,0.000001,0.000000
random/ex125.top,6,9,7,9,2,4,1700,757,10,0.534604,0.423037,0.000936,0.017992,0.000001,0.000000
random/ex126.top,7,8,5,8,3,4,1389,862,3,0.409754,0.325994,0.000724,0.018687,0.000000,0.000001
random/ex127.top,8,8,6,8,2,4,859,790,2,0.220571,0.164519,0.000460,0.012293,0.000000,0.000001
random/ex128.top,6,5,9,11,2,4,75,75,1,0.014061,0.011581,0.000030,0.000512,0.000001,0.000000
random/ex129.top,8,8,6,8,2,4,1486,603,5,0.391652,0.304580,0.000822,0.020950,0.000001,0.000000
random/ex13.top,5,11,7,9,2,4,37139,420,400,52.202476,48.770183,0.027293,0.312824,0.000001,0.000001
random/ex130.top,8,9,4,6,2,4,11141,2505,14,5.199614,4.352000,0.007282,0.217435,0.000001,0.000000
random/ex131.top,8,8,7,9,2,4,1359,540,5,0.345233,0.267772,0.000756,0.016280,0.000000,0.000001
random/ex132.top,8,8,6,8,2,4,2466,2466,1,0.723844,0.563851,0.001230,0.035948,0.000000,0.000001
random/ex133.top,8,7,9,11,2,4,180,180,1,0.041597,0.032139,0.000081,0.002343,0.000001,0.000000
random/ex134.top,8,8,6,8,2,4,5354,2853,4,1.879217,1.544833,0.002782,0.066924,0.000000,0.000001
random/ex135.top,8,8,4,6,2,4,270,270,1,0.060379,0.044073,0.000130,0.003583,0.000001,0.000000
random/ex136.top,8,7,4,6,2,4,729,729,1,0.161382,0.122618,0.000360,0.008988,0.000000,0.000001
random/ex137.top,6,5,5,7,2,4,252,252,1,0.042435,0.034002,0.000091,0.001807,0.000001,0.000000
random/ex138.top,8,8,5,7,2,4,1065,1065,1,0.287605,0.221091,0.000535,0.015819,0.000001,0.000000
random/ex139.top,8,7,5,8,3,4,483,483,1,0.113716,0.088189,0.000223,0.006024,0.000000,0.000001
random/ex14.top,5,12,5,7,2,4,90634,243,1124,285.439421,275.771667,0.081200,0.789700,0.000001,0.000000
random/ex140.top,6,7,8,10,2,4,177,108,3,0.039719,0.030894,0.000080,0.001550,0.000001,0.000000
random/ex141.top,6,8,5,7,2,4,1264,266,15,0.331401,0.261673,0.000621,0.010995,0.000000,0.000000
random/ex142.top,6,12,4,6,2,4,70999,1269,238,154.258045,146.112593,0.094181,1.026967,0.000001,0.000000
random/ex143.top,6,8,9,11,2,4,490,206,9,0.152300,0.121015,0.000299,0.004612,0.000000,0.000001
random/ex144.top,6,7,7,9,2,4,1579,351,8,0.453518,0.377431,0.000796,0.012647,0.000000,0.000001
random/ex145.top,6,7,6,9,3,4,709,386,5,0.173474,0.138708,0.000340,0.006114,0.000001,0.000000
random/ex146.top,6,7,7,10,3,4,3125,288,25,0.884504,0.730258,0.001522,0.023522,0.000000,0.000000
random/ex147.top,6,8,7,9,2,4,3448,477,20,1.077494,0.881194,0.001731,0.029980,0.000001,0.000000
random/ex148.top,6,6,6,8,2,4,423,144,6,0.088330,0.071691,0.000217,0.002907,0.000000,0.000001
random/ex149.top,6,7,6,8,2,4,2704,729,8,0.753857,0.623087,0.001512,0.022605,0.000001,0.000000
random/ex15.top,5,11,6,8,2,4,25590,324,278,25.775828,23.581452,0.020227,0.209949,0.000001,0.000000
random/ex150.top,5,5,8,10,2,4,138,138,1,0.025232,0.020888,0.000053,0.000743,0.000000,0.000001
random/ex151.top,7,9,6,8,2,4,6878,1340,20,2.960243,2.483657,0.003869,0.087365,0.000001,0.000000
random/ex152.top,6,10,7,10,3,4,1860,624,22,0.629232,0.495248,0.001004,0.019295,0.000000,0.000001
random/ex153.top,5,4,9,11,2,4,51,51,1,0.009103,0.007814,0.000020,0.000246,0.000001,0.000000
random/ex154.top,5,5,6,8,2,4,264,72,6,0.047568,0.039048,0.000094,0.001299,0.000001,0.000000
random/ex155.top,6,10,7,9,2,4,4688,387,63,2.064065,1.737124,0.002717,0.045533,0.000001,0.000000
random/ex156.top,6,7,7,9,2,4,1089,663,4,0.290619,0.239998,0.000488,0.009367,0.000001,0.000000
random/ex157.top,6,6,7,9,2,4,429,429,1,0.095586,0.078962,0.000200,0.003482,0.000000,0.000001
random/ex158.top,6,7,8,10,2,4,263,159,3,0.056543,0.044011,0.000125,0.002085,0.000000,0.000001
random/ex159.top,6,10,5,7,2,4,8161,936,36,3.526605,2.926662,0.004875,0.082215,0.000001,0.000000
random/ex16.top,5,14,6,8,2,4,100000,420,3327,482.723462,470.142000,0.106092,1.301962,0.000001,0.000000
random/ex160.top,6,9,7,9,2,4,2762,549,19,0.876619,0.701645,0.001443,0.025448,0.000001,0.000000
random/ex161.top,6,7,8,10,2,4,1394,264,9,0.351515,0.284845,0.000708,0.010958,0.000001,0.000000
random/ex162.top,6,8,6,8,2,4,4491,351,21,1.601665,1.295190,0.002682,0.037383,0.000001,0.000000
random/ex163.top,6,6,9,11,2,4,538,216,5,0.108295,0.087248,0.000256,0.003801,0.000000,0.000001
random/ex164.top,6,6,8,10,2,4,166,102,4,0.033513,0.027009,0.000071,0.001137,0.000000,0.000001
random/ex165.top,6,7,5,7,2,4,1026,153,15,0.245233,0.198340,0.000505,0.007534,0.000001,0.000000
random/ex166.top,6,10,7,9,2,4,1117,428,13,0.338156,0.260851,0.000639,0.012253,0.000001,0.000000
random/ex167.top,6,10,7,10,3,4,7302,592,68,3.799212,3.172055,0.004315,0.073203,0.000000,0.000001
random/ex168.top,6,10,6,8,2,4,2460,505,25,0.894200,0.719795,0.001357,0.024761,0.000001,0.000000
random/ex169.top,6,11,5,7,2,4,59612,1296,184,122.239408,116.835625,0.049470,0.693491,0.000001,0.000000
random/ex17.top,5,11,7,9,2,4,3331,304,67,1.299639,1.023122,0.001979,0.026837,0.000000,0.000001
random/ex170.top,6,10,6,8,2,4,18468,702,84,13.797883,11.707961,0.012048,0.185976,0.000000,0.000001
random/ex171.top,6,10,6,8,2,4,10270,648,43,5.947894,5.109199,0.006602,0.176572,0.000000,0.000001
random/ex172.top,6,11,8,10,2,4,4158,484,74,1.914098,1.585220,0.002431,0.046210,0.000001,0.000000
random/ex173.top,6,10,4,7,3,4,9049,786,42,4.701056,3.980913,0.005357,0.157403,0.000000,0.000001
random/ex174.top,6,10,4,7,3,4,6276,837,36,2.645931,2.185971,0.003392,0.068722,0.000001,0.000000
random/ex175.top,6,9,4,7,3,4,4053,699,22,1.488238,1.229587,0.002078,0.038892,0.000001,0.000000
random/ex176.top,6,9,6,8,2,4,4914,924,15,1.818035,1.498906,0.002518,0.043991,0.000000,0.000001
random/ex177.top,7,7,8,10,2,4,551,551,1,0.139130,0.110387,0.000251,0.006246,0.000000,0.000001
random/ex178.top,7,9,5,7,2,4,2995,408,26,1.028175,0.840159,0.001570,0.033585,0.000001,0.000000
random/ex179.top,7,9,6,8,2,4,840,273,6,0.234611,0.183870,0.000445,0.009161,0.000001,0.000000
random/ex18.top,5,12,9,11,2,4,100000,243,2137,423.252733,412.642978,0.098079,0.914522,0.000001,0.000000
random/ex180.top,7,11,7,9,2,4,21971,2889,36,15.704724,13.791698,0.017662,0.289681,0.000001,0.000000
random/ex181.top,7,10,5,7,2,4,14062,3024,21,8.684715,7.410324,0.009449,0.265763,0.000001,0.000000
random/ex182.top,7,8,6,8,2,4,2378,370,11,0.759538,0.628839,0.001082,0.023737,0.000000,0.000001
random/ex183.top,7,9,6,8,2,4,4184,634,11,1.627900,1.268265,0.002163,0.144530,0.000001,0.000000
random/ex184.top,7,7,7,9,2,4,646,281,4,0.424669,0.152224,0.000293,0.006343,0.000000,0.000001
random/ex185.top,7,8,8,10,2,4,518,356,3,0.136223,0.107372,0.000243,0.005812,0.000000,0.000001
random/ex186.top,7,7,6,8,2,4,1477,625,5,0.416097,0.340326,0.000699,0.014389,0.000000,0.000001
random/ex187.top,7,7,6,9,3,4,1604,657,4,0.476040,0.367137,0.000750,0.044753,0.000001,0.000000
random/ex188.top,7,7,7,9,2,4,669,669,1,0.178935,0.134794,0.000295,0.007498,0.000000,0.000001
random/ex189.top,7,8,8,10,2,4,667,355,4,0.197540,0.138236,0.000306,0.007543,0.000000,0.000001
random/ex19.top,5,9,7,9,2,4,5816,234,94,2.547984,2.133217,0.003463,0.040237,0.000001,0.000000
random/ex190.top,6,10,6,8,2,4,7679,486,53,3.792963,3.224756,0.004496,0.079446,0.000001,0.000000
random/ex191.top,8,9,4,6,2,4,2455,2446,2,0.778205,0.603955,0.001252,0.040552,0.000000,0.000001
random/ex192.top,8,8,6,8,2,4,1172,1172,1,0.323876,0.251114,0.000553,0.016555,0.000001,0.000000
random/ex193.top,8,7,6,9,3,4,751,751,1,0.178873,0.138200,0.000332,0.009828,0.000001,0.000000
random/ex194.top,8,7,3,6,3,4,1586,927,3,0.375608,0.292294,0.000702,0.017520,0.000000,0.000001
random/ex195.top,6,6,6,8,2,4,885,189,8,0.197824,0.163599,0.000405,0.005895,0.000000,0.000001
random/ex196.top,8,7,7,9,2,4,567,567,1,0.152851,0.122633,0.000249,0.007098,0.000000,0.000000
random/ex197.top,8,7,7,9,2,4,380,380,1,0.085342,0.065348,0.000176,0.004590,0.000000,0.000001
random/ex198.top,8,7,5,7,2,4,219,219,1,0.046273,0.034818,0.000105,0.002442,0.000001,0.000000
random/ex199.top,8,8,5,7,2,4,879,879,1,0.207215,0.154097,0.000441,0.011491,0.000000,0.000001
random/ex2.top,5,7,7,9,2,4,1423,321,9,0.412850,0.347329,0.000658,0.008840,0.000001,0.000000
random/ex20.top,5,13,7,9,2,4,100000,324,1111,473.505167,462.107176,0.106892,0.973564,0.000001,0.000000
random/ex200.top,7,10,5,7,2,4,8217,1683,21,3.691851,3.039863,0.004792,0.121436,0.000001,0.000000
random/ex201.top,6,8,7,10,3,4,1360,696,7,0.376917,0.302919,0.000662,0.012790,0.000001,0.000000
random/ex202.top,6,7,7,9,2,4,360,162,4,0.076218,0.060018,0.000156,0.002809,0.000001,0.000000
random/ex203.top,7,8,5,7,2,4,2368,692,7,0.688294,0.550721,0.001090,0.027226,0.000000,0.000001
random/ex204.top,7,8,7,10,3,4,10748,2448,6,4.720383,4.073697,0.005769,0.131069,0.000001,0.000000
random/ex205.top,5,4,7,9,2,4,53,53,1,0.009837,0.008444,0.000023,0.000414,0.000001,0.000000
random/ex206.top,5,7,7,9,2,4,873,162,10,0.197647,0.159075,0.000396,0.004933,0.000000,0.000000
random/ex207.top,7,6,3,6,3,4,292,292,1,0.057495,0.045290,0.000119,0.002698,0.000000,0.000001
random/ex208.top,8,9,6,8,2,4,3192,2880,3,1.011314,0.774768,0.001700,0.051699,0.000001,0.000000
random/ex209.top,8,8,4,6,2,4,930,675,2,0.240473,0.183706,0.000486,0.012190,0.000001,0.000000
random/ex21.top,5,12,5,7,2,4,100000,243,1403,443.266661,432.459123,0.097300,0.869669,0.000001,0.000000
random/ex210.top,8,7,6,8,2,4,593,456,3,0.142311,0.111220,0.000294,0.006936,0.000000,0.000001
random/ex211.top,6,6,8,10,2,4,203,123,3,0.040761,0.032539,0.000087,0.001434,0.000000,0.000001
random/ex212.top,6,6,5,8,3,4,1293,276,7,0.292378,0.240317,0.000566,0.010168,0.000000,0.000001
random/ex213.top,6,6,7,9,2,4,274,144,3,0.051810,0.041262,0.000113,0.001852,0.000000,0.000001
random/ex214.top,6,5,8,10,2,4,389,60,8,0.072494,0.060533,0.000161,0.002249,0.000001,0.000000
random/ex215.top,6,6,4,6,2,4,135,72,3,0.025152,0.019925,0.000060,0.000867,0.000001,0.000000
random/ex216.top,10,11,4,6,2,4,5424,4080,2,2.076863,1.559643,0.003379,0.144594,0.000000,0.000001
random/ex217.top,10,10,4,6,2,4,12138,4176,5,5.748099,4.491430,0.007699,0.494098,0.000001,0.000000
random/ex218.top,10,9,7,9,2,4,2349,943,6,0.771880,0.595488,0.001204,0.044716,0.000000,0.000001
random/ex219.top,10,9,6,8,2,4,9700,4500,5,4.325197,3.542396,0.005902,0.202993,0.000001,0.000000
random/ex22.top,5,10,4,6,2,4,8483,388,132,4.664492,4.024983,0.004624,0.068687,0.000001,0.000000
random/ex220.top,8,7,7,9,2,4,453,453,1,0.103000,0.079066,0.000212,0.005408,0.000000,0.000001
random/ex221.top,8,7,4,8,4,4,945,360,4,0.208393,0.159788,0.000430,0.011204,0.000001,0.000000
random/ex222.top,9,10,4,6,2,4,12438,8838,3,5.726591,4.567616,0.007927,0.359990,0.000000,0.000001
random/ex223.top,8,10,5,7,2,4,2188,1624,4,0.707042,0.537948,0.001249,0.035380,0.000000,0.000001
random/ex224.top,8,9,6,8,2,4,1869,1197,3,0.503017,0.371534,0.000996,0.028958,0.000000,0.000001
random/ex225.top,8,8,4,6,2,4,1428,513,5,0.374198,0.285845,0.000694,0.020977,0.000001,0.000000
random/ex226.top,8,7,4,6,2,4,1054,288,7,0.250073,0.195537,0.000481,0.012827,0.000000,0.000001
random/ex227.top,6,5,5,7,2,4,189,189,1,0.034333,0.028068,0.000072,0.001402,0.000001,0.000000
random/ex228.top,5,3,8,10,2,4,27,27,1,0.004891,0.004389,0.000012,0.000122,0.000000,0.000001
random/ex229.top,5,4,8,10,2,4,78,78,1,0.012742,0.010659,0.000029,0.000417,0.000000,0.000000
random/ex23.top,5,11,8,10,2,4,8070,246,249,4.339306,3.694818,0.005271,0.066486,0.000001,0.000000
random/ex230.top,5,5,7,9,2,4,153,153,1,0.028686,0.023993,0.000057,0.000800,0.000001,0.000000
random/ex231.top,5,4,5,8,3,4,77,77,1,0.011937,0.009966,0.000029,0.000366,0.000000,0.000000
random/ex232.top,8,7,4,6,2,4,1020,1020,1,0.241310,0.186396,0.000466,0.012805,0.000001,0.000000
random/ex233.top,8,7,4,6,2,4,702,702,1,0.153335,0.116371,0.000294,0.008438,0.000000,0.000001
random/ex234.top,5,10,8,10,2,4,8778,162,145,4.678039,4.035835,0.006043,0.072110,0.000001,0.000000
random/ex235.top,5,6,9,11,2,4,122,112,2,0.028093,0.023308,0.000053,0.000927,0.000001,0.000000
random/ex236.top,5,8,8,10,2,4,3868,321,30,1.394140,1.169592,0.001984,0.026316,0.000001,0.000000
random/ex237.top,5,7,8,10,2,4,322,191,5,0.075082,0.059447,0.000138,0.002080,0.000001,0.000000
random/ex238.top,5,8,9,11,2,4,4899,324,38,2.103085,1.808115,0.002610,0.034716,0.000000,0.000001
random/ex239.top,5,11,4,6,2,4,56122,243,657,106.304782,100.997517,0.043387,0.428867,0.000000,0.000001
random/ex24.top,5,11,7,9,2,4,22302,324,226,19.200657,17.319425,0.017106,0.189172,0.000001,0.000000
random/ex240.top,5,10,6,8,2,4,36626,216,451,53.476942,49.053007,0.025796,0.258091,0.000001,0.000000
random/ex241.top,5,6,8,11,3,4,263,214,2,0.065634,0.055072,0.000102,0.001851,0.000000,0.000001
random/ex242.top,5,7,7,9,2,4,561,216,6,0.146692,0.117181,0.000233,0.003471,0.000000,0.000001
random/ex243.top,5,9,7,9,2,4,6943,242,86,3.345397,2.887139,0.003661,0.049711,0.000001,0.000000
random/ex244.top,5,12,8,10,2,4,100000,324,1572,438.763654,428.456763,0.095964,0.882980,0.000001,0.000000
random/ex245.top,5,11,6,9,3,4,100000,432,717,375.146255,365.593042,0.092835,0.833032,0.000000,0.000001
random/ex246.top,5,10,7,9,2,4,25683,324,226,26.975772,24.980112,0.018900,0.190679,0.000000,0.000001
random/ex247.top,5,5,9,12,3,4,324,324,1,0.067566,0.056717,0.000119,0.001887,0.000001,0.000000
random/ex248.top,5,8,8,10,2,4,3496,284,45,1.205855,0.996252,0.001785,0.024001,0.000000,0.000001
random/ex249.top,5,7,9,11,2,4,1143,189,10,0.303333,0.244750,0.000504,0.006968,0.000001,0.000000
random/ex25.top,5,8,8,10,2,4,3875,519,30,1.582800,1.357962,0.001957,0.027700,0.000000,0.000001
random/ex250.top,5,11,6,9,3,4,94849,492,819,346.428109,336.946106,0.081169,0.754978,0.000001,0.000000
random/ex251.top,5,12,6,9,3,4,100000,576,1079,451.781291,441.393047,0.093467,0.901835,0.000001,0.000000
random/ex252.top,5,10,6,8,2,4,23970,324,231,22.875191,21.013336,0.017040,0.183688,0.000001,0.000000
random/ex253.top,5,9,7,9,2,4,2505,228,42,0.862976,0.704359,0.001312,0.018889,0.000001,0.000000
random/ex254.top,5,6,7,10,3,4,469,87,7,0.112036,0.094151,0.000196,0.002438,0.000001,0.000000
random/ex255.top,5,9,7,9,2,4,6349,204,95,3.008506,2.591378,0.003361,0.045563,0.000000,0.000001
random/ex256.top,5,8,7,9,2,4,4864,309,48,1.885239,1.599693,0.002436,0.034144,0.000001,0.000000
random/ex257.top,5,7,7,9,2,4,1163,201,14,0.319661,0.264078,0.000524,0.006988,0.000001,0.000000
random/ex258.top,5,8,7,9,2,4,3553,243,33,1.231080,1.033203,0.001754,0.022569,0.000001,0.000000
random/ex259.top,5,8,8,11,3,4,1741,227,32,0.543130,0.447267,0.000870,0.011757,0.000000,0.000000
random/ex26.top,5,8,7,9,2,4,1703,237,27,0.539223,0.443030,0.000826,0.011455,0.000000,0.000001
random/ex260.top,5,7,8,10,2,4,1123,129,22,0.311817,0.259870,0.000524,0.006797,0.000000,0.000001
random/ex261.top,5,8,6,8,2,4,2460,153,33,0.754589,0.620945,0.001266,0.015830,0.000001,0.000000
random/ex262.top,5,9,8,10,2,4,6364,243,67,2.504330,2.101538,0.003621,0.042499,0.000001,0.000000
random/ex263.top,5,9,8,10,2,4,7511,313,82,3.383343,2.886014,0.004253,0.051403,0.000001,0.000000
random/ex264.top,5,8,5,7,2,4,2421,315,25,0.770372,0.635318,0.001235,0.015788,0.000000,0.000000
random/ex265.top,5,6,6,8,2,4,286,120,4,0.062689,0.050872,0.000122,0.001698,0.000000,0.000001
random/ex266.top,5,7,5,7,2,4,687,126,12,0.159417,0.128115,0.000313,0.004045,0.000000,0.000000
random/ex267.top,5,6,7,9,2,4,342,63,7,0.080477,0.067212,0.000147,0.001763,0.000000,0.000001
random/ex268.top,5,10,6,8,2,4,25060,309,260,24.266659,22.382323,0.017676,0.193458,0.000001,0.000000
random/ex269.top,5,8,7,9,2,4,3439,252,63,1.206235,1.016837,0.001794,0.022959,0.000001,0.000000
random/ex27.top,5,9,8,10,2,4,7993,162,89,4.080598,3.540560,0.004505,0.055786,0.000001,0.000000
random/ex270.top,5,6,7,9,2,4,241,144,3,0.054138,0.044723,0.000098,0.001429,0.000000,0.000001
random/ex271.top,5,6,7,10,3,4,264,168,3,0.055065,0.044817,0.000103,0.001541,0.000001,0.000000
random/ex272.top,5,8,8,10,2,4,8998,534,65,4.617418,4.106150,0.004774,0.057551,0.000000,0.000001
random/ex273.top,5,9,7,9,2,4,1736,114,38,0.542984,0.439852,0.000912,0.012188,0.000001,0.000000
random/ex274.top,5,9,6,8,2,4,5288,204,67,2.110280,1.791561,0.002974,0.037037,0.000001,0.000000
random/ex275.top,5,8,7,9,2,4,1299,396,15,0.378571,0.308556,0.000623,0.008685,0.000000,0.000001
random/ex276.top,5,4,9,11,2,4,78,78,1,0.014142,0.012139,0.000029,0.000377,0.000001,0.000000
random/ex277.top,5,8,7,9,2,4,4524,207,42,1.628343,1.370210,0.002290,0.029180,0.000001,0.000000
random/ex278.top,5,7,8,10,2,4,1446,285,9,0.389165,0.320024,0.000714,0.008498,0.000000,0.000001
random/ex279.top,5,6,7,9,2,4,342,159,4,0.075420,0.062124,0.000141,0.001902,0.000000,0.000000
random/ex28.top,5,8,7,10,3,4,1887,180,36,0.602041,0.495835,0.000945,0.012715,0.000001,0.000000
random/ex280.top,6,12,9,11,2,4,644,304,13,0.244151,0.188657,0.000391,0.008220,0.000000,0.000001
random/ex281.top,6,6,4,7,3,4,324,324,1,0.069902,0.055710,0.000128,0.002572,0.000001,0.000000
random/ex282.top,6,11,6,8,2,4,2571,600,19,0.978608,0.761863,0.001530,0.031041,0.000001,0.000000
random/ex283.top,6,12,8,10,2,4,8022,902,73,4.621237,3.854543,0.005497,0.108415,0.000000,0.000001
random/ex284.top,6,10,6,8,2,4,9779,700,38,5.355471,4.565139,0.005684,0.110150,0.000001,0.000000
random/ex285.top,6,9,7,9,2,4,960,564,5,0.280471,0.216211,0.000514,0.009590,0.000001,0.000000
random/ex286.top,6,9,6,8,2,4,3269,594,16,1.152204,0.933074,0.001734,0.031158,0.000001,0.000000
random/ex287.top,6,7,9,11,2,4,332,93,5,0.081656,0.064890,0.000155,0.002573,0.000001,0.000000
random/ex288.top,6,9,7,10,3,4,1933,490,22,0.623875,0.498482,0.000991,0.018008,0.000000,0.000000
random/ex289.top,6,8,7,9,2,4,1976,420,9,0.650774,0.536115,0.000999,0.017722,0.000000,0.000001
random/ex29.top,5,10,6,9,3,4,57848,432,331,122.417440,117.525448,0.046498,0.465748,0.000001,0.000000
random/ex290.top,6,10,5,7,2,4,16876,648,61,11.629108,10.267720,0.010754,0.175264,0.000000,0.000001
random/ex291.top,6,9,6,8,2,4,1788,324,16,0.538702,0.419366,0.000958,0.016117,0.000000,0.000001
random/ex292.top,6,10,5,7,2,4,25732,972,66,21.918639,19.886093,0.017850,0.239173,0.000001,0.000000
random/ex293.top,6,7,6,8,2,4,246,216,2,0.059896,0.047874,0.000104,0.002074,0.000001,0.000000
random/ex294.top,6,8,6,8,2,4,2424,468,9,0.713238,0.573205,0.001255,0.019776,0.000001,0.000000
random/ex295.top,6,8,7,10,3,4,1426,846,5,0.400996,0.316484,0.000710,0.013285,0.000001,0.000000
random/ex296.top,6,7,7,9,2,4,443,276,3,0.109699,0.086912,0.000201,0.003641,0.000001,0.000000
random/ex297.top,6,8,7,9,2,4,998,461,7,0.289279,0.232066,0.000450,0.009201,0.000000,0.000001
random/ex298.top,6,9,5,7,2,4,6397,729,24,2.565363,2.137501,0.003482,0.059786,0.000001,0.000000
random/ex299.top,6,7,9,11,2,4,2763,243,23,0.813803,0.686216,0.001550,0.019811,0.000001,0.000000
random/ex3.top,5,6,9,11,2,4,1164,489,5,0.261692,0.216587,0.000508,0.007027,0.000000,0.000000
random/ex30.top,5,11,6,8,2,4,100000,324,914,379.056430,368.407049,0.089512,0.786766,0.000001,0.000000
random/ex300.top,6,6,8,10,2,4,757,148,6,0.186859,0.154860,0.000335,0.004981,0.000001,0.000000
random/ex301.top,6,5,8,10,2,4,111,111,1,0.022407,0.018653,0.000043,0.000732,0.000001,0.000000
random/ex302.top,6,12,6,9,3,4,25907,1288,131,27.504105,24.662169,0.019915,0.467670,0.000000,0.000001
random/ex303.top,6,11,6,8,2,4,8149,671,57,4.379124,3.720449,0.005417,0.089659,0.000000,0.000001
random/ex304.top,6,10,6,8,2,4,2433,414,19,0.830373,0.658553,0.001501,0.025470,0.000000,0.000001
random/ex305.top,6,7,8,10,2,4,1363,558,5,0.367894,0.299033,0.000608,0.011200,0.000000,0.000001
random/ex306.top,7,7,8,10,2,4,164,164,1,0.040096,0.032231,0.000075,0.001702,0.000001,0.000000
random/ex307.top,6,10,7,9,2,4,2462,576,15,0.779925,0.605735,0.001403,0.024371,0.000000,0.000001
random/ex308.top,6,9,6,8,2,4,7511,924,45,3.523897,3.023159,0.004497,0.073002,0.000000,0.000001
random/ex309.top,6,9,4,6,2,4,4011,438,30,1.470547,1.208574,0.002018,0.035299,0.000000,0.000001
random/ex31.top,5,10,7,9,2,4,32904,243,313,44.412611,41.789292,0.024942,0.253111,0.000001,0.000000
random/ex310.top,6,8,8,10,2,4,2556,504,12,0.839952,0.692423,0.001390,0.021444,0.000000,0.000001
random/ex311.top,7,11,8,10,2,4,3852,1398,10,1.606983,1.291538,0.002378,0.061759,0.000001,0.000000
random/ex312.top,6,7,5,8,3,4,2259,1539,3,0.643978,0.528846,0.000980,0.021057,0.000001,0.000000
random/ex313.top,6,11,6,8,2,4,38175,612,188,56.645156,53.159773,0.028141,0.422800,0.000001,0.000000
random/ex314.top,7,12,5,8,3,4,33331,4264,56,46.142976,42.565124,0.024650,0.583568,0.000000,0.000001
random/ex315.top,7,10,6,8,2,4,7585,2852,9,3.908817,3.321871,0.004412,0.118090,0.000000,0.000001
random/ex316.top,7,12,7,9,2,4,16809,1703,38,12.692864,10.983647,0.012697,0.297852,0.000000,0.000001
random/ex317.top,7,12,5,8,3,4,100000,5176,90,343.286511,331.693035,0.097214,1.970195,0.000000,0.000001
random/ex318.top,7,11,6,9,3,4,6012,2004,13,2.712815,2.184512,0.003795,0.092706,0.000000,0.000001
random/ex319.top,7,9,7,10,3,4,1375,879,3,0.447430,0.357894,0.000682,0.017814,0.000000,0.000001
random/ex32.top,5,8,8,10,2,4,3772,240,45,1.337569,1.120650,0.002089,0.024693,0.000001,0.000000
random/ex320.top,7,9,7,9,2,4,3307,1649,5,1.310094,1.078396,0.001731,0.043518,0.000001,0.000000
random/ex321.top,7,7,7,9,2,4,339,339,1,0.087983,0.071356,0.000141,0.003652,0.000001,0.000000
random/ex322.top,7,8,6,8,2,4,1565,882,5,0.470805,0.378266,0.000746,0.018297,0.000000,0.000000
random/ex323.top,8,7,5,7,2,4,436,436,1,0.097644,0.075656,0.000206,0.005117,0.000001,0.000000
random/ex324.top,7,6,8,10,2,4,63,63,1,0.014441,0.011538,0.000030,0.000600,0.000001,0.000000
random/ex325.top,7,7,8,10,2,4,204,162,2,0.045756,0.035748,0.000095,0.002098,0.000001,0.000000
random/ex326.top,8,8,5,8,3,4,4541,1922,4,1.625995,1.316520,0.002378,0.072546,0.000001,0.000000
random/ex327.top,9,11,5,7,2,4,6412,5390,4,2.717805,2.092178,0.003837,0.164880,0.000001,0.000000
random/ex328.top,8,8,6,9,3,4,2848,2848,1,0.883763,0.699322,0.001449,0.046231,0.000001,0.000000
random/ex329.top,8,9,7,9,2,4,2622,1490,3,0.847381,0.661227,0.001441,0.044037,0.000001,0.000000
random/ex33.top,5,10,6,8,2,4,20672,243,368,18.387632,16.832495,0.013988,0.145014,0.000001,0.000000
random/ex330.top,8,8,5,7,2,4,3033,918,6,0.898134,0.717302,0.001797,0.039482,0.000000,0.000001
random/ex331.top,8,7,6,9,3,4,717,717,1,0.160878,0.125068,0.000334,0.008247,0.000001,0.000000
random/ex332.top,8,7,5,7,2,4,978,978,1,0.240022,0.188135,0.000454,0.012482,0.000000,0.000001
random/ex333.top,8,8,4,7,3,4,3621,3621,1,1.182673,0.943647,0.001801,0.060464,0.000000,0.000001
random/ex334.top,8,7,8,10,2,4,254,254,1,0.058024,0.045377,0.000122,0.002942,0.000001,0.000000
random/ex335.top,6,9,5,8,3,4,2610,884,8,0.966572,0.795374,0.001357,0.028249,0.000000,0.000001
random/ex336.top,6,7,8,10,2,4,309,260,2,0.087434,0.071438,0.000134,0.002658,0.000000,0.000001
random/ex337.top,6,10,7,9,2,4,9410,945,30,5.268666,4.560886,0.005733,0.100531,0.000000,0.000001
random/ex338.top,6,11,7,9,2,4,5047,773,42,2.454018,2.033112,0.003081,0.056931,0.000001,0.000000
random/ex339.top,6,8,9,11,2,4,1107,786,5,0.339940,0.276124,0.000632,0.011043,0.000001,0.000000
random/ex34.top,5,10,7,9,2,4,20131,324,181,15.947877,14.001813,0.014464,0.153347,0.000000,0.000001
random/ex340.top,6,5,8,10,2,4,66,66,1,0.014925,0.012745,0.000028,0.000471,0.000001,0.000000
random/ex341.top,7,6,5,8,3,4,272,272,1,0.054509,0.042650,0.000109,0.002505,0.000000,0.000001
random/ex342.top,6,7,6,8,2,4,898,507,4,0.342259,0.214662,0.000499,0.007641,0.000002,0.000000
random/ex343.top,6,6,8,10,2,4,73,73,1,0.017158,0.014202,0.000031,0.000559,0.000001,0.000000
random/ex344.top,8,9,6,8,2,4,873,609,2,0.232280,0.177068,0.000508,0.011625,0.000001,0.000000
random/ex345.top,6,6,8,10,2,4,216,216,1,0.043960,0.035469,0.000088,0.001684,0.000001,0.000000
random/ex346.top,6,5,9,11,2,4,37,37,1,0.008133,0.006985,0.000017,0.000262,0.000000,0.000001
random/ex347.top,6,8,5,7,2,4,1016,518,6,0.292111,0.236075,0.000457,0.009284,0.000001,0.000000
random/ex348.top,6,8,8,10,2,4,1224,401,10,0.366924,0.269242,0.000617,0.036736,0.000000,0.000001
random/ex349.top,6,7,7,9,2,4,480,381,2,0.142622,0.119804,0.000201,0.004112,0.000001,0.000000
random/ex35.top,5,6,9,11,2,4,152,136,2,0.032711,0.026607,0.000063,0.000925,0.000000,0.000001
random/ex350.top,6,13,6,8,2,4,100000,972,565,437.620952,423.954240,0.094432,1.730361,0.000001,0.000000
random/ex351.top,6,12,7,9,2,4,86631,1287,325,304.671368,295.131039,0.075779,1.128972,0.000001,0.000000
random/ex352.top,6,6,7,9,2,4,217,217,1,0.050720,0.041345,0.000088,0.001724,0.000001,0.000000
random/ex353.top,6,8,5,7,2,4,2419,630,10,0.751308,0.609260,0.001386,0.022726,0.000001,0.000000
random/ex354.top,6,7,5,7,2,4,252,153,3,0.057265,0.044756,0.000113,0.002076,0.000000,0.000000
random/ex355.top,6,8,7,10,3,4,3527,600,20,1.295104,1.089855,0.001787,0.032996,0.000001,0.000000
random/ex356.top,6,7,6,9,3,4,310,164,4,0.081220,0.066036,0.000136,0.002636,0.000000,0.000000
random/ex357.top,6,6,8,10,2,4,186,186,1,0.043631,0.035830,0.000080,0.001494,0.000000,0.000001
random/ex358.top,6,9,6,8,2,4,1157,559,8,0.357122,0.282332,0.000584,0.012043,0.000000,0.000001
random/ex359.top,7,9,7,9,2,4,406,350,2,0.125591,0.098018,0.000229,0.005194,0.000001,0.000000
random/ex36.top,5,8,8,11,3,4,1004,268,13,0.277993,0.223234,0.000492,0.006785,0.000000,0.000001
random/ex360.top,7,8,6,8,2,4,404,404,1,0.117030,0.093113,0.000208,0.005062,0.000001,0.000000
random/ex361.top,7,9,8,10,2,4,295,281,2,0.091832,0.071026,0.000156,0.003676,0.000000,0.000000
random/ex362.top,7,10,8,10,2,4,1801,1290,6,0.678577,0.534416,0.001072,0.028175,0.000001,0.000000
random/ex363.top,6,6,7,10,3,4,281,281,1,0.060203,0.048429,0.000116,0.002271,0.000001,0.000000
random/ex364.top,6,7,6,8,2,4,1039,506,4,0.295600,0.242781,0.000456,0.009174,0.000001,0.000000
random/ex365.top,7,9,6,8,2,4,6759,1789,12,2.778284,2.306752,0.003817,0.079917,0.000000,0.000001
random/ex366.top,6,8,9,11,2,4,1750,520,10,0.565879,0.463139,0.000868,0.016881,0.000001,0.000000
random/ex367.top,6,8,3,5,2,4,2086,630,9,0.602368,0.482655,0.001066,0.020242,0.000000,0.000001
random/ex368.top,6,8,7,10,3,4,4958,1181,15,1.881271,1.586256,0.002577,0.048892,0.000000,0.000001
random/ex369.top,6,8,6,8,2,4,1431,495,8,0.407009,0.326924,0.000712,0.012461,0.000000,0.000001
random/ex37.top,5,9,8,10,2,4,2769,279,34,0.953757,0.781064,0.001572,0.019337,0.000001,0.000000
random/ex370.top,6,7,6,8,2,4,585,354,3,0.154830,0.126496,0.000283,0.004899,0.000001,0.000000
random/ex371.top,6,7,5,8,3,4,636,476,2,0.152504,0.122363,0.000276,0.005357,0.000000,0.000001
random/ex372.top,7,9,5,7,2,4,1896,1080,6,0.580607,0.448454,0.000945,0.024414,0.000001,0.000000
random/ex373.top,7,8,4,6,2,4,1572,1452,2,0.434954,0.336143,0.000716,0.020338,0.000001,0.000000
random/ex374.top,6,10,6,8,2,4,21357,939,61,19.124459,17.431424,0.015067,0.228784,0.000000,0.000001
random/ex375.top,6,10,5,8,3,4,11459,1052,34,6.348449,5.442841,0.007061,0.124460,0.000001,0.000000
random/ex376.top,6,9,8,10,2,4,2220,459,19,0.772572,0.624360,0.001122,0.021597,0.000000,0.000001
random/ex377.top,6,9,4,7,3,4,8010,1662,16,3.752544,3.198736,0.004540,0.083534,0.000001,0.000000
random/ex378.top,6,13,8,10,2,4,100000,1296,907,423.869326,412.529159,0.099110,1.314414,0.000001,0.000000
random/ex379.top,6,12,8,10,2,4,100000,828,884,401.874488,390.587322,0.092407,1.257754,0.000002,0.000000
random/ex38.top,5,8,6,8,2,4,2001,229,39,0.682477,0.569077,0.000917,0.013787,0.000001,0.000000
random/ex380.top,6,12,5,7,2,4,64371,1287,228,160.112937,151.951848,0.051509,1.259735,0.000001,0.000000
random/ex381.top,6,8,7,9,2,4,2517,813,9,0.801285,0.657367,0.001266,0.022064,0.000001,0.000000
random/ex382.top,6,8,8,10,2,4,4429,799,14,1.743961,1.481563,0.002356,0.042450,0.000001,0.000000
random/ex383.top,6,9,7,9,2,4,1421,425,13,0.438123,0.346167,0.000786,0.014178,0.000000,0.000001
random/ex384.top,6,9,6,8,2,4,13128,779,47,8.878212,7.352176,0.008227,0.748749,0.000001,0.000000
random/ex385.top,6,8,6,8,2,4,1098,482,6,0.316250,0.254898,0.000543,0.009736,0.000000,0.000001
random/ex386.top,6,8,5,7,2,4,1286,525,5,0.376571,0.280679,0.000609,0.036992,0.000001,0.000000
random/ex387.top,7,6,5,7,2,4,363,363,1,0.102989,0.063327,0.000140,0.003575,0.000000,0.000000
random/ex388.top,6,7,7,9,2,4,551,432,3,0.137336,0.111510,0.000232,0.004531,0.000001,0.000000
random/ex389.top,6,6,4,7,3,4,169,169,1,0.034270,0.027616,0.000084,0.001347,0.000000,0.000001
random/ex39.top,5,8,5,7,2,4,7843,324,60,3.635603,3.181818,0.003976,0.045558,0.000001,0.000000
random/ex390.top,7,6,8,10,2,4,105,105,1,0.023697,0.019432,0.000044,0.000990,0.000000,0.000000
random/ex391.top,7,8,5,7,2,4,1686,648,5,0.453244,0.359194,0.000897,0.016888,0.000001,0.000000
random/ex392.top,7,7,6,8,2,4,548,315,4,0.128005,0.102091,0.000257,0.005103,0.000000,0.000000
random/ex393.top,6,5,9,11,2,4,113,113,1,0.021847,0.018108,0.000080,0.000958,0.000001,0.000000
random/ex394.top,7,6,5,7,2,4,315,315,1,0.077461,0.048904,0.000133,0.009281,0.000001,0.000000
random/ex395.top,6,7,7,9,2,4,324,322,2,0.139121,0.095774,0.000145,0.002757,0.000001,0.000000
random/ex396.top,6,6,7,9,2,4,142,142,1,0.066965,0.028991,0.000064,0.001234,0.000000,0.000001
random/ex397.top,6,10,7,9,2,4,39501,972,113,54.511745,51.035763,0.029391,0.436633,0.000001,0.000000
random/ex398.top,6,8,8,11,3,4,688,404,4,0.191697,0.153827,0.000347,0.006341,0.000001,0.000000
random/ex399.top,6,7,4,6,2,4,586,506,2,0.140071,0.111600,0.000274,0.004887,0.000000,0.000001
random/ex4.top,5,7,6,9,3,4,1460,349,12,0.429031,0.358504,0.000653,0.009405,0.000001,0.000000
random/ex40.top,5,7,6,8,2,4,498,162,6,0.122729,0.099372,0.000218,0.002861,0.000000,0.000001
random/ex400.top,6,8,7,9,2,4,741,468,4,0.190165,0.149682,0.000357,0.006655,0.000001,0.000000
random/ex401.top,7,7,5,7,2,4,1050,1050,1,0.256442,0.201692,0.000480,0.010890,0.000001,0.000000
random/ex402.top,7,8,5,7,2,4,1368,378,8,0.360174,0.282564,0.000663,0.012752,0.000000,0.000001
random/ex403.top,7,7,6,8,2,4,932,252,6,0.217853,0.170873,0.000419,0.008655,0.000001,0.000000
random/ex404.top,7,9,4,6,2,4,8500,837,16,3.743183,3.161616,0.005201,0.084346,0.000000,0.000001
random/ex405.top,7,8,6,8,2,4,1142,462,6,0.305615,0.241074,0.000577,0.011240,0.000001,0.000000
random/ex406.top,7,7,5,8,3,4,1215,612,3,0.299405,0.240072,0.000578,0.010779,0.000001,0.000000
random/ex407.top,7,6,6,8,2,4,323,323,1,0.060446,0.047088,0.000135,0.002851,0.000000,0.000001
random/ex408.top,7,6,5,7,2,4,339,339,1,0.070624,0.056616,0.000140,0.003117,0.000001,0.000000
random/ex409.top,7,7,7,10,3,4,297,297,1,0.075873,0.061752,0.000131,0.003222,0.000001,0.000000
random/ex41.top,5,8,6,9,3,4,10173,432,43,5.206404,4.614928,0.005737,0.059196,0.000001,0.000000
random/ex410.top,7,8,5,7,2,4,580,484,2,0.152366,0.117896,0.000295,0.006654,0.000001,0.000000
random/ex411.top,7,7,7,9,2,4,427,427,1,0.110832,0.089241,0.000191,0.004522,0.000000,0.000001
random/ex412.top,7,9,6,8,2,4,1185,918,3,0.349879,0.275229,0.000671,0.014967,0.000001,0.000000
random/ex413.top,7,10,5,7,2,4,2764,1035,13,0.959438,0.758982,0.001542,0.035041,0.000001,0.000000
random/ex414.top,7,9,5,7,2,4,4581,2181,8,1.663807,1.348100,0.002379,0.056514,0.000000,0.000001
random/ex415.top,7,8,5,7,2,4,702,681,2,0.182312,0.142109,0.000315,0.007990,0.000000,0.000000
random/ex416.top,7,9,7,9,2,4,4344,1944,5,1.708785,1.416868,0.002905,0.057198,0.000001,0.000000
random/ex417.top,7,9,5,7,2,4,3024,1116,8,1.062719,0.861987,0.001551,0.034947,0.000000,0.000001
random/ex418.top,7,8,6,8,2,4,750,585,2,0.193430,0.152003,0.000399,0.008447,0.000000,0.000001
random/ex419.top,7,10,4,6,2,4,9001,2364,15,4.364531,3.659292,0.005248,0.121407,0.000000,0.000001
random/ex42.top,6,10,7,9,2,4,3548,440,19,1.452901,1.196002,0.001893,0.036418,0.000000,0.000001
random/ex420.top,7,9,5,7,2,4,3462,1114,9,1.311519,1.074571,0.001841,0.041911,0.000000,0.000001
random/ex421.top,7,8,7,9,2,4,552,442,2,0.138341,0.106995,0.000265,0.006094,0.000001,0.000000
random/ex422.top,7,7,8,10,2,4,559,559,1,0.131744,0.102794,0.000264,0.006081,0.000001,0.000000
random/ex423.top,7,7,5,7,2,4,1479,1479,1,0.390910,0.311352,0.000689,0.017000,0.000001,0.000000
random/ex424.top,6,6,7,9,2,4,143,87,3,0.030370,0.024821,0.000060,0.001060,0.000000,0.000000
random/ex425.top,7,9,6,8,2,4,1507,479,6,0.505610,0.406377,0.000773,0.017756,0.000000,0.000001
random/ex426.top,6,7,6,8,2,4,688,315,4,0.193006,0.158892,0.000332,0.005828,0.000000,0.000000
random/ex427.top,6,6,7,9,2,4,372,126,4,0.088136,0.073727,0.000175,0.002653,0.000001,0.000000
random/ex428.top,6,8,7,10,3,4,3141,585,10,1.059505,0.879190,0.001711,0.027240,0.000000,0.000001
random/ex429.top,6,8,6,8,2,4,1464,567,6,0.415480,0.332911,0.000757,0.012497,0.000000,0.000001
random/ex43.top,6,9,7,9,2,4,1733,618,11,0.584314,0.472044,0.000833,0.017708,0.000000,0.000001
random/ex430.top,6,7,6,9,3,4,424,158,9,0.106786,0.086859,0.000188,0.003183,0.000001,0.000000
random/ex431.top,6,6,8,10,2,4,215,215,1,0.047826,0.039587,0.000093,0.001735,0.000001,0.000000
random/ex432.top,6,7,7,9,2,4,668,552,3,0.167109,0.134574,0.000310,0.005766,0.000001,0.000000
random/ex433.top,6,5,4,7,3,4,276,276,1,0.046772,0.037265,0.000101,0.001792,0.000000,0.000001
random/ex434.top,6,4,6,8,2,4,45,45,1,0.008204,0.006927,0.000019,0.000399,0.000000,0.000001
random/ex435.top,6,5,7,9,2,4,153,153,1,0.026595,0.021414,0.000060,0.000961,0.000001,0.000000
random/ex436.top,6,4,9,11,2,4,42,42,1,0.007550,0.006448,0.000018,0.000245,0.000001,0.000000
random/ex437.top,7,8,8,10,2,4,1063,477,4,0.300400,0.238666,0.000553,0.012773,0.000001,0.000000
random/ex438.top,7,7,8,11,3,4,301,242,2,0.070609,0.055359,0.000139,0.003110,0.000000,0.000001
random/ex439.top,7,8,6,8,2,4,648,625,2,0.186369,0.148587,0.000324,0.007417,0.000001,0.000000
random/ex44.top,5,10,6,8,2,4,11878,243,141,6.532245,5.647409,0.007538,0.088027,0.000000,0.000001
random/ex440.top,7,9,5,8,3,4,6558,1575,11,2.915708,2.440750,0.003625,0.090306,0.000000,0.000001
random/ex441.top,7,8,6,8,2,4,1703,643,7,0.505112,0.403007,0.000845,0.021116,0.000001,0.000001
random/ex442.top,7,8,6,9,3,4,2662,735,9,0.894952,0.741450,0.001327,0.028095,0.000001,0.000000
random/ex443.top,7,7,6,8,2,4,710,193,8,0.184009,0.148998,0.000323,0.006653,0.000001,0.000000
random/ex444.top,7,7,6,8,2,4,1110,162,14,0.290745,0.233969,0.000502,0.010427,0.000001,0.000000
random/ex445.top,8,7,6,9,3,4,197,197,1,0.054809,0.044259,0.000086,0.002432,0.000000,0.000001
random/ex446.top,7,8,6,9,3,4,651,651,1,0.174148,0.135529,0.000319,0.007912,0.000001,0.000000
random/ex447.top,7,6,4,6,2,4,243,243,1,0.047861,0.037930,0.000101,0.002219,0.000001,0.000000
random/ex448.top,7,6,9,11,2,4,78,78,1,0.017809,0.014780,0.000036,0.000732,0.000001,0.000000
random/ex449.top,7,6,7,10,3,4,241,241,1,0.054564,0.044795,0.000095,0.002309,0.000000,0.000001
random/ex45.top,5,10,7,9,2,4,43897,162,596,74.099928,70.622046,0.033720,0.317426,0.000001,0.000000
random/ex450.top,7,6,5,8,3,4,192,192,1,0.041456,0.033477,0.000084,0.001782,0.000001,0.000000
random/ex451.top,7,6,7,9,2,4,105,105,1,0.021469,0.017253,0.000046,0.000917,0.000000,0.000000
random/ex452.top,7,8,6,8,2,4,2154,1119,4,0.639257,0.513979,0.001150,0.024219,0.000001,0.000000
random/ex453.top,7,10,3,5,2,4,3528,1323,8,1.136442,0.875911,0.002157,0.045292,0.000001,0.000000
random/ex454.top,7,10,4,6,2,4,22902,4365,14,17.844847,15.923851,0.017925,0.369690,0.000000,0.000001
random/ex455.top,7,9,5,7,2,4,1379,792,5,0.398131,0.307746,0.000731,0.015351,0.000001,0.000000
random/ex456.top,7,7,6,8,2,4,357,357,1,0.093043,0.074820,0.000165,0.003624,0.000001,0.000000
random/ex457.top,7,8,7,9,2,4,671,438,3,0.198912,0.159857,0.000335,0.007500,0.000000,0.000001
random/ex458.top,9,10,6,8,2,4,1404,1395,2,0.447532,0.338558,0.000903,0.025617,0.000000,0.000001
random/ex459.top,9,11,5,7,2,4,6636,6285,3,2.958521,2.333687,0.004405,0.163890,0.000001,0.000000
random/ex46.top,5,10,5,8,3,4,31743,416,317,41.139779,38.725415,0.023275,0.253631,0.000001,0.000000
random/ex460.top,8,6,7,10,3,4,134,134,1,0.026345,0.020675,0.000055,0.001384,0.000001,0.000000
random/ex461.top,8,6,4,6,2,4,237,237,1,0.045644,0.035596,0.000100,0.002507,0.000001,0.000000
random/ex462.top,8,8,4,6,2,4,1863,837,4,0.504760,0.395674,0.000920,0.023907,0.000000,0.000001
random/ex463.top,8,7,6,8,2,4,1197,324,6,0.308006,0.245112,0.000547,0.013188,0.000001,0.000000
random/ex464.top,7,9,5,7,2,4,18671,2961,15,11.500056,10.079795,0.012965,0.243717,0.000001,0.000000
random/ex465.top,7,8,5,7,2,4,3630,846,14,1.175064,0.947087,0.001999,0.044227,0.000001,0.000000
random/ex466.top,7,9,4,6,2,4,1701,648,6,0.461902,0.353003,0.000898,0.020989,0.000001,0.000000
random/ex467.top,7,8,6,8,2,4,5631,1188,7,2.195102,1.835511,0.003303,0.072118,0.000001,0.000000
random/ex468.top,7,8,7,9,2,4,4185,945,7,1.466262,1.216655,0.002354,0.048727,0.000001,0.000000
random/ex469.top,7,8,4,7,3,4,3348,2124,3,1.000228,0.796950,0.001709,0.040250,0.000001,0.000000
random/ex47.top,5,9,4,6,2,4,5669,243,68,2.043164,1.689878,0.003140,0.037948,0.000000,0.000001
random/ex470.top,7,8,5,7,2,4,4054,459,20,1.351081,1.106305,0.002140,0.039375,0.000001,0.000000
random/ex471.top,7,7,6,8,2,4,1950,378,7,0.552380,0.451080,0.001000,0.021101,0.000000,0.000001
random/ex472.top,8,7,5,7,2,4,1936,324,8,0.503288,0.400281,0.000989,0.024628,0.000001,0.000000
random/ex473.top,8,8,3,5,2,4,1269,1269,1,0.326518,0.249408,0.000596,0.017603,0.000001,0.000000
random/ex474.top,8,9,4,6,2,4,2907,2718,2,0.904428,0.698971,0.001658,0.050603,0.000001,0.000000
random/ex475.top,8,8,6,8,2,4,1231,1231,1,0.326520,0.251779,0.000631,0.017599,0.000001,0.000000
random/ex476.top,8,7,8,10,2,4,787,787,1,0.182085,0.139064,0.000354,0.010301,0.000000,0.000000
random/ex477.top,8,9,6,8,2,4,774,774,1,0.208670,0.157382,0.000395,0.011192,0.000000,0.000001
random/ex478.top,8,6,5,7,2,4,513,513,1,0.102745,0.079001,0.000204,0.005959,0.000000,0.000001
random/ex479.top,7,6,7,9,2,4,466,466,1,0.103640,0.083847,0.000193,0.004535,0.000000,0.000001
random/ex48.top,5,9,8,10,2,4,20257,323,175,17.985459,16.640162,0.013629,0.147533,0.000000,0.000001
random/ex480.top,7,9,3,5,2,4,4812,1053,10,1.528254,1.195340,0.002712,0.052603,0.000000,0.000001
random/ex481.top,8,8,5,7,2,4,2277,2277,1,0.637935,0.489231,0.001207,0.034841,0.000001,0.000000
random/ex482.top,8,7,4,6,2,4,423,423,1,0.098964,0.076958,0.000194,0.005158,0.000001,0.000000
random/ex483.top,7,6,5,7,2,4,357,357,1,0.076548,0.061734,0.000148,0.003224,0.000001,0.000000
random/ex484.top,10,9,4,6,2,4,2485,2485,1,0.771996,0.586296,0.001380,0.053875,0.000000,0.000000
random/ex485.top,9,8,2,5,3,4,2124,2124,1,0.543663,0.407812,0.001059,0.033975,0.000000,0.000001
random/ex486.top,7,6,5,7,2,4,222,222,1,0.046244,0.037125,0.000107,0.002099,0.000000,0.000001
random/ex487.top,7,7,4,6,2,4,702,702,1,0.141181,0.105979,0.000316,0.007274,0.000000,0.000001
random/ex488.top,7,5,5,7,2,4,81,81,1,0.017847,0.014530,0.000033,0.000673,0.000000,0.000001
random/ex489.top,7,6,6,8,2,4,216,216,1,0.042532,0.033651,0.000093,0.002084,0.000001,0.000000
random/ex49.top,5,11,8,10,2,4,71898,319,1025,208.047045,201.237561,0.057730,0.590606,0.000001,0.000000
random/ex490.top,7,6,3,5,2,4,369,369,1,0.070540,0.055103,0.000183,0.003543,0.000001,0.000000
random/ex491.top,7,5,4,6,2,4,171,171,1,0.031083,0.024825,0.000070,0.001544,0.000000,0.000001
random/ex492.top,10,9,4,6,2,4,2088,2088,1,0.595588,0.441585,0.001152,0.044745,0.000000,0.000001
random/ex493.top,7,7,7,9,2,4,840,840,1,0.209190,0.164225,0.000411,0.009669,0.000000,0.000001
random/ex494.top,8,7,7,9,2,4,180,180,1,0.042555,0.032773,0.000088,0.002182,0.000000,0.000001
random/ex495.top,7,8,6,8,2,4,1383,1228,2,0.455682,0.373499,0.000675,0.019551,0.000001,0.000000
random/ex496.top,8,6,7,9,2,4,348,348,1,0.071059,0.055796,0.000149,0.003625,0.000001,0.000000
random/ex497.top,7,7,7,10,3,4,937,937,1,0.242986,0.191948,0.000455,0.012089,0.000000,0.000001
random/ex498.top,7,7,5,7,2,4,996,996,1,0.236549,0.183434,0.000461,0.010470,0.000000,0.000001
random/ex499.top,7,11,5,7,2,4,11243,1756,25,6.043219,5.006896,0.008084,0.183945,0.000000,0.000001
random/ex5.top,5,5,9,11,2,4,117,117,1,0.022912,0.019053,0.000047,0.000844,0.000000,0.000001
random/ex50.top,5,11,6,8,2,4,43366,243,564,76.555580,72.779480,0.034585,0.363236,0.000000,0.000001
random/ex500.top,7,10,5,7,2,4,4845,1530,17,1.883750,1.508920,0.003113,0.068746,0.000000,0.000001
random/ex501.top,7,9,5,7,2,4,1411,900,4,0.433990,0.339999,0.000817,0.017909,0.000001,0.000000
random/ex502.top,7,8,6,9,3,4,1305,970,3,0.379240,0.299458,0.000690,0.016713,0.000001,0.000000
random/ex503.top,7,8,8,11,3,4,4245,2317,4,1.495329,1.226938,0.002372,0.056623,0.000001,0.000000
random/ex504.top,7,9,5,7,2,4,5700,537,35,2.286374,1.896846,0.003396,0.068555,0.000000,0.000001
random/ex505.top,7,9,6,8,2,4,3334,1394,8,1.232337,1.002270,0.001803,0.047839,0.000001,0.000015
random/ex506.top,7,9,4,6,2,4,2666,1651,5,0.855696,0.667663,0.001489,0.037327,0.000001,0.000000
random/ex507.top,7,8,5,7,2,4,2598,796,10,0.786395,0.631199,0.001376,0.030003,0.000001,0.000000
random/ex508.top,7,8,8,10,2,4,243,219,2,0.059080,0.045332,0.000122,0.002759,0.000000,0.000001
random/ex509.top,7,8,7,9,2,4,651,563,2,0.170191,0.131312,0.000360,0.007430,0.000001,0.000000
random/ex51.top,5,10,7,9,2,4,39343,324,378,60.777725,57.611530,0.031007,0.314488,0.000000,0.000001
random/ex510.top,7,8,7,9,2,4,2505,1436,3,0.763412,0.606164,0.001272,0.033206,0.000001,0.000000
random/ex511.top,7,8,5,7,2,4,2192,1116,4,0.675594,0.538004,0.001027,0.027315,0.000000,0.000001
random/ex512.top,7,8,4,6,2,4,1080,837,3,0.270910,0.203137,0.000536,0.012168,0.000000,0.000001
random/ex513.top,7,9,6,8,2,4,3995,884,12,1.391174,1.107806,0.002210,0.048613,0.000001,0.000000
random/ex514.top,7,8,7,9,2,4,638,520,2,0.156049,0.118233,0.000310,0.006810,0.000000,0.000001
random/ex515.top,7,7,3,6,3,4,1224,1224,1,0.291961,0.225227,0.000532,0.013852,0.000000,0.000001
random/ex516.top,7,7,4,6,2,4,903,903,1,0.211996,0.165251,0.000455,0.009547,0.000001,0.000000
random/ex517.top,7,10,6,9,3,4,4470,1176,23,1.655977,1.298530,0.002609,0.059131,0.000001,0.000000
random/ex518.top,9,7,5,7,2,4,335,335,1,0.079409,0.061511,0.000151,0.004747,0.000000,0.000000
random/ex519.top,7,7,7,9,2,4,702,702,1,0.160707,0.125707,0.000314,0.007669,0.000001,0.000000
random/ex52.top,5,9,5,7,2,4,6533,183,95,2.749188,2.314762,0.003643,0.044876,0.000000,0.000001
random/ex520.top,7,10,4,7,3,4,13023,3594,12,6.941454,5.879006,0.008978,0.212520,0.000000,0.000001
random/ex521.top,7,9,6,8,2,4,3031,1273,8,0.937662,0.731008,0.001585,0.040315,0.000000,0.000001
random/ex522.top,9,12,6,8,2,4,71652,6237,54,141.948063,133.474236,0.068747,1.745632,0.000001,0.000001
random/ex523.top,9,11,4,6,2,4,35808,12000,6,31.491316,27.684891,0.028767,0.996368,0.000001,0.000000
random/ex524.top,9,10,5,7,2,4,13857,8127,3,6.743365,5.375554,0.009235,0.384396,0.000001,0.000000
random/ex525.top,7,9,7,9,2,4,1149,312,9,0.424448,0.348354,0.000566,0.013878,0.000001,0.000000
random/ex526.top,9,6,4,6,2,4,213,213,1,0.042889,0.033514,0.000091,0.002559,0.000001,0.000000
random/ex527.top,7,7,5,7,2,4,459,459,1,0.110636,0.086018,0.000199,0.004903,0.000001,0.000000
random/ex528.top,9,8,4,6,2,4,387,387,1,0.097114,0.071566,0.000181,0.005782,0.000000,0.000001
random/ex529.top,7,11,6,8,2,4,1950,744,8,0.826355,0.515977,0.001296,0.150455,0.000001,0.000000
random/ex53.top,5,9,9,11,2,4,19167,261,356,17.574345,16.323032,0.013348,0.131854,0.000001,0.000000
random/ex530.top,7,11,7,9,2,4,16775,1107,53,12.782623,10.844883,0.012890,0.244833,0.000001,0.000000
random/ex531.top,7,11,5,7,2,4,12208,2309,20,7.972111,6.769800,0.008437,0.211732,0.000001,0.000000
random/ex532.top,9,8,5,7,2,4,1734,1734,1,0.493932,0.365948,0.000879,0.041639,0.000000,0.000000
random/ex533.top,9,7,6,9,3,4,540,540,1,0.122212,0.091909,0.000256,0.008251,0.000001,0.000000
random/ex534.top,7,11,7,9,2,4,15041,1863,30,9.241212,7.699675,0.016424,0.399374,0.000001,0.000000
random/ex535.top,7,8,6,8,2,4,2345,1053,5,0.750256,0.601137,0.001198,0.028383,0.000000,0.000001
random/ex536.top,7,10,6,8,2,4,7307,2139,16,3.465290,2.839826,0.004849,0.114946,0.000000,0.000001
random/ex537.top,7,9,6,9,3,4,12202,3350,10,7.122243,5.918373,0.007550,0.221776,0.000001,0.000000
random/ex538.top,7,6,7,9,2,4,338,338,1,0.078773,0.063913,0.000152,0.003342,0.000001,0.000000
random/ex539.top,7,6,8,10,2,4,431,431,1,0.098951,0.078022,0.000190,0.004746,0.000001,0.000000
random/ex54.top,5,9,5,8,3,4,9689,276,86,5.159132,4.486709,0.005782,0.069222,0.000001,0.000000
random/ex540.top,7,6,6,8,2,4,287,287,1,0.065031,0.052940,0.000114,0.002764,0.000001,0.000000
random/ex541.top,7,7,6,8,2,4,263,263,1,0.066335,0.052239,0.000111,0.002782,0.000001,0.000000
random/ex542.top,7,11,6,8,2,4,3699,1068,23,1.596076,1.192306,0.002270,0.076447,0.000001,0.000000
random/ex543.top,7,10,6,8,2,4,5121,1077,20,2.221171,1.774153,0.003340,0.072007,0.000000,0.000000
random/ex544.top,7,10,5,7,2,4,17025,2661,22,11.585391,9.509695,0.017341,0.613263,0.000001,0.000000
random/ex545.top,8,8,5,7,2,4,1173,1173,1,0.463744,0.288738,0.000573,0.079841,0.000001,0.000000
random/ex546.top,7,10,8,11,3,4,10251,1176,35,5.455995,4.604618,0.006874,0.126932,0.000001,0.000000
random/ex547.top,7,8,6,8,2,4,3642,531,17,1.306027,1.075677,0.001914,0.042897,0.000001,0.000000
random/ex548.top,7,9,5,7,2,4,2334,714,9,0.724083,0.569334,0.001266,0.029039,0.000000,0.000001
random/ex549.top,7,10,2,5,3,4,15030,2892,25,7.712868,6.466440,0.010462,0.222796,0.000001,0.000000
random/ex55.top,5,5,9,11,2,4,180,180,1,0.041458,0.035619,0.000065,0.001042,0.000001,0.000000
random/ex550.top,7,10,6,8,2,4,33351,1917,66,33.087307,29.966904,0.025163,0.657657,0.000001,0.000000
random/ex551.top,7,10,4,6,2,4,28146,1728,56,26.601537,24.015327,0.021136,0.397215,0.000001,0.000000
random/ex552.top,7,11,4,6,2,4,6702,819,25,2.995139,2.383723,0.004497,0.090073,0.000001,0.000000
random/ex553.top,7,10,7,9,2,4,3617,1470,11,1.389595,1.093964,0.002082,0.049768,0.000001,0.000000
random/ex554.top,7,9,5,7,2,4,9528,729,39,4.667308,3.983010,0.005419,0.110813,0.000000,0.000001
random/ex555.top,7,10,6,8,2,4,20358,1548,49,15.024236,13.360725,0.015298,0.275541,0.000000,0.000001
random/ex556.top,7,10,8,10,2,4,3883,967,18,1.987910,1.190865,0.002401,0.055995,0.000001,0.000000
random/ex557.top,10,12,3,5,2,4,6075,5877,2,2.678707,1.872712,0.004263,0.338106,0.000000,0.000000
random/ex558.top,8,8,3,5,2,4,1203,1203,1,0.342280,0.252096,0.000567,0.017801,0.000001,0.000000
random/ex559.top,8,8,8,10,2,4,1615,1615,1,0.467127,0.369203,0.000799,0.022849,0.000000,0.000001
random/ex56.top,5,9,6,8,2,4,10241,306,110,5.645098,4.973583,0.005268,0.070170,0.000000,0.000001
random/ex560.top,8,9,3,6,3,4,2850,2374,2,0.842027,0.641499,0.001457,0.043632,0.000000,0.000001
random/ex561.top,8,7,7,9,2,4,406,406,1,0.088176,0.068554,0.000191,0.004531,0.000001,0.000000
random/ex562.top,8,9,5,7,2,4,1662,981,6,0.480875,0.367409,0.000934,0.024139,0.000000,0.000001
random/ex563.top,8,8,3,5,2,4,798,645,3,0.196991,0.150140,0.000388,0.010610,0.000000,0.000001
random/ex564.top,8,8,7,9,2,4,564,564,1,0.147803,0.115135,0.000275,0.007494,0.000001,0.000000
random/ex565.top,8,7,3,5,2,4,425,425,1,0.097780,0.076372,0.000191,0.005172,0.000001,0.000000
random/ex566.top,8,7,4,7,3,4,284,284,1,0.060975,0.046959,0.000131,0.003237,0.000001,0.000000
random/ex567.top,8,7,5,7,2,4,657,657,1,0.142794,0.110292,0.000300,0.007658,0.000000,0.000001
random/ex568.top,8,6,5,7,2,4,354,354,1,0.071630,0.056407,0.000149,0.003626,0.000000,0.000001
random/ex569.top,10,12,3,5,2,4,38846,31576,3,39.957182,33.370880,0.033840,3.370755,0.000001,0.000000
random/ex57.top,5,10,7,9,2,4,22826,243,421,21.496526,19.783489,0.015966,0.173954,0.000000,0.000001
random/ex570.top,10,13,4,6,2,4,11396,7373,5,5.594181,4.198766,0.008514,0.421337,0.000001,0.000001
random/ex571.top,10,12,5,7,2,4,62622,15813,11,103.955381,95.475222,0.059178,3.055710,0.000001,0.000000
random/ex572.top,10,12,6,8,2,4,7102,3864,5,2.990074,2.237850,0.005140,0.210085,0.000001,0.000000
random/ex573.top,10,11,4,6,2,4,864,756,2,0.247388,0.175247,0.000538,0.017950,0.000001,0.000000
random/ex574.top,9,8,5,7,2,4,828,828,1,0.195070,0.143354,0.000380,0.013982,0.000001,0.000000
random/ex575.top,10,11,4,7,3,4,30186,26556,2,23.720763,19.588063,0.025916,1.887717,0.000001,0.000000
random/ex576.top,10,11,3,5,2,4,14348,13280,2,7.132700,5.493453,0.010901,0.632739,0.000000,0.000001
random/ex577.top,10,11,3,5,2,4,9684,9288,2,4.287784,3.298402,0.006747,0.333109,0.000000,0.000001
random/ex578.top,10,10,3,5,2,4,3567,3441,2,1.109445,0.813624,0.002112,0.087997,0.000000,0.000000
random/ex579.top,9,7,4,6,2,4,810,810,1,0.177445,0.134595,0.000375,0.012400,0.000000,0.000001
random/ex58.top,5,8,8,10,2,4,5099,321,35,2.106030,1.821315,0.002671,0.034427,0.000000,0.000000
random/ex580.top,8,6,6,8,2,4,246,246,1,0.048477,0.037487,0.000106,0.002788,0.000001,0.000000
random/ex581.top,8,7,7,9,2,4,180,180,1,0.042097,0.032009,0.000076,0.002099,0.000000,0.000001
random/ex582.top,10,7,5,7,2,4,309,309,1,0.073859,0.056099,0.000136,0.004684,0.000000,0.000001
random/ex583.top,10,7,4,6,2,4,564,564,1,0.136598,0.104649,0.000260,0.008353,0.000000,0.000000
random/ex584.top,8,10,3,5,2,4,3352,2278,4,1.090447,0.821820,0.001948,0.055167,0.000000,0.000001
random/ex585.top,8,9,5,8,3,4,783,711,2,0.202335,0.149627,0.000412,0.012001,0.000000,0.000001
random/ex586.top,9,10,6,8,2,4,2661,2292,3,0.998212,0.775272,0.001587,0.054954,0.000001,0.000000
random/ex587.top,9,9,5,7,2,4,3222,3222,1,1.161304,0.914255,0.001761,0.068830,0.000000,0.000001
random/ex588.top,9,7,5,7,2,4,567,567,1,0.121538,0.091177,0.000254,0.007790,0.000001,0.000000
random/ex589.top,8,8,5,8,3,4,1475,1113,3,0.415141,0.322651,0.000745,0.021415,0.000000,0.000001
random/ex59.top,5,8,9,11,2,4,262,123,4,0.064254,0.050217,0.000122,0.001703,0.000000,0.000001
random/ex590.top,8,6,5,7,2,4,316,316,1,0.062010,0.047344,0.000131,0.003643,0.000001,0.000000
random/ex591.top,8,8,4,6,2,4,1195,705,3,0.314230,0.243504,0.000638,0.015716,0.000001,0.000000
random/ex592.top,8,7,7,9,2,4,686,686,1,0.156666,0.121880,0.000322,0.008187,0.000001,0.000000
random/ex593.top,8,7,5,7,2,4,450,450,1,0.105323,0.082570,0.000195,0.005330,0.000001,0.000000
random/ex594.top,8,6,5,7,2,4,157,157,1,0.032235,0.025114,0.000071,0.001822,0.000000,0.000001
random/ex595.top,8,5,5,7,2,4,88,88,1,0.018047,0.014658,0.000037,0.001102,0.000001,0.000000
random/ex596.top,8,6,6,9,3,4,185,185,1,0.037444,0.028909,0.000078,0.002220,0.000001,0.000000
random/ex597.top,8,7,4,7,3,4,527,527,1,0.130752,0.102890,0.000233,0.007045,0.000001,0.000000
random/ex598.top,8,8,6,8,2,4,372,372,1,0.094894,0.072020,0.000184,0.004984,0.000000,0.000001
random/ex599.top,9,9,6,8,2,4,1571,1338,2,0.497314,0.382904,0.000816,0.030721,0.000001,0.000000
random/ex6.top,6,9,8,10,2,4,12814,405,63,8.571072,7.707147,0.008633,0.120655,0.000000,0.000001
random/ex60.top,5,7,9,11,2,4,1424,324,10,0.380676,0.312028,0.000649,0.008924,0.000001,0.000000
random/ex600.top,9,9,6,8,2,4,5382,3270,3,2.113160,1.699951,0.003134,0.103611,0.000001,0.000000
random/ex601.top,9,7,5,7,2,4,736,736,1,0.188529,0.147564,0.000319,0.011285,0.000001,0.000000
random/ex602.top,9,8,5,7,2,4,856,856,1,0.240531,0.186861,0.000407,0.013541,0.000001,0.000000
random/ex603.top,9,7,5,7,2,4,594,594,1,0.140426,0.108453,0.000268,0.008425,0.000000,0.000000
random/ex604.top,8,6,8,10,2,4,145,145,1,0.030484,0.023384,0.000064,0.001722,0.000001,0.000000
random/ex605.top,8,10,7,9,2,4,2514,489,11,0.876439,0.685925,0.001421,0.040376,0.000000,0.000001
random/ex606.top,8,9,8,10,2,4,974,809,2,0.278970,0.213439,0.000564,0.014708,0.000000,0.000001
random/ex607.top,8,8,5,7,2,4,1422,1422,1,0.403263,0.313411,0.000746,0.021890,0.000000,0.000001
random/ex608.top,8,5,6,8,2,4,135,135,1,0.023993,0.018990,0.000054,0.001534,0.000001,0.000000
random/ex609.top,8,5,7,9,2,4,115,115,1,0.023467,0.019264,0.000049,0.001139,0.000001,0.000000
random/ex61.top,5,10,6,8,2,4,14936,243,171,11.079515,9.943782,0.010350,0.118275,0.000001,0.000000
random/ex610.top,8,5,6,8,2,4,92,92,1,0.017897,0.014372,0.000037,0.001061,0.000001,0.000000
random/ex611.top,8,4,9,11,2,4,37,37,1,0.006710,0.005636,0.000016,0.000328,0.000000,0.000001
random/ex612.top,8,10,6,8,2,4,1614,1614,1,0.571733,0.445270,0.000893,0.029218,0.000000,0.000001
random/ex613.top,8,9,7,9,2,4,1494,1493,2,0.470822,0.363968,0.000807,0.024778,0.000001,0.000000
random/ex614.top,8,10,5,7,2,4,1770,1584,2,0.568263,0.427494,0.001053,0.031132,0.000001,0.000001
random/ex615.top,8,9,6,8,2,4,2632,2605,2,0.908498,0.714322,0.001330,0.046225,0.000000,0.000001
random/ex616.top,9,7,4,6,2,4,522,522,1,0.116000,0.086451,0.000274,0.007305,0.000001,0.000000
random/ex617.top,9,8,8,10,2,4,1266,1266,1,0.352521,0.273159,0.000632,0.020758,0.000000,0.000001
random/ex618.top,9,9,5,8,3,4,1944,1944,1,0.590298,0.440099,0.001024,0.040702,0.000000,0.000001
random/ex619.top,10,10,4,6,2,4,4485,4485,1,1.678025,1.271849,0.002633,0.116207,0.000000,0.000000
random/ex62.top,5,12,8,10,2,4,100000,243,2231,438.500356,427.883102,0.091025,0.847344,0.000001,0.000001
random/ex620.top,10,9,7,9,2,4,2930,2930,1,1.003775,0.758833,0.001648,0.072420,0.000000,0.000001
random/ex621.top,10,10,6,9,3,4,6134,6134,1,2.162364,1.597339,0.004073,0.174338,0.000001,0.000000
random/ex622.top,8,8,6,9,3,4,1040,1040,1,0.277024,0.212614,0.000535,0.015092,0.000000,0.000001
random/ex623.top,8,7,7,9,2,4,381,381,1,0.086447,0.066451,0.000171,0.004719,0.000001,0.000000
random/ex624.top,8,8,8,10,2,4,912,489,5,0.263900,0.208828,0.000456,0.012178,0.000001,0.000000
random/ex625.top,8,8,6,9,3,4,2182,2182,1,0.590335,0.453743,0.001172,0.031388,0.000001,0.000000
random/ex626.top,8,6,8,10,2,4,477,477,1,0.098028,0.076082,0.000194,0.005396,0.000000,0.000001
random/ex627.top,8,6,7,9,2,4,114,114,1,0.024515,0.019113,0.000051,0.001225,0.000001,0.000000
random/ex628.top,8,7,7,9,2,4,322,322,1,0.080328,0.063895,0.000145,0.003972,0.000001,0.000000
random/ex629.top,8,8,5,7,2,4,629,629,1,0.166546,0.128733,0.000306,0.008865,0.000000,0.000000
random/ex63.top,5,11,7,9,2,4,67963,243,1124,188.971835,182.810073,0.057915,0.539853,0.000001,0.000000
random/ex630.top,8,7,5,7,2,4,810,810,1,0.230350,0.189058,0.000363,0.010201,0.000000,0.000001
random/ex631.top,8,6,5,7,2,4,232,232,1,0.051608,0.041110,0.000095,0.002609,0.000001,0.000000
random/ex632.top,8,8,8,10,2,4,363,363,1,0.091936,0.071608,0.000168,0.004793,0.000001,0.000000
random/ex633.top,8,8,7,9,2,4,918,918,1,0.242356,0.190075,0.000480,0.012451,0.000001,0.000000
random/ex634.top,8,8,8,10,2,4,446,446,1,0.111200,0.085527,0.000215,0.005914,0.000000,0.000001
random/ex635.top,8,8,6,8,2,4,547,547,1,0.143429,0.109844,0.000267,0.007841,0.000001,0.000000
random/ex636.top,8,7,5,7,2,4,414,414,1,0.090390,0.069682,0.000191,0.004897,0.000001,0.000000
random/ex637.top,8,5,6,8,2,4,78,78,1,0.014852,0.012143,0.000035,0.000718,0.000000,0.000000
random/ex638.top,8,6,4,7,3,4,249,249,1,0.050523,0.040290,0.000110,0.002564,0.000001,0.000000
random/ex639.top,8,6,5,7,2,4,620,180,5,0.128919,0.102390,0.000297,0.005547,0.000000,0.000001
random/ex64.top,5,9,7,9,2,4,2168,228,50,0.781200,0.645299,0.001059,0.015004,0.000001,0.000000
random/ex640.top,8,6,6,8,2,4,249,249,1,0.052050,0.041372,0.000109,0.002571,0.000001,0.000000
random/ex641.top,8,7,4,7,3,4,729,729,1,0.165104,0.128292,0.000357,0.008839,0.000001,0.000000
random/ex642.top,8,6,7,9,2,4,252,252,1,0.049232,0.038678,0.000115,0.002666,0.000001,0.000000
random/ex643.top,8,5,6,8,2,4,181,181,1,0.034229,0.027806,0.000074,0.001804,0.000001,0.000000
random/ex644.top,9,6,5,7,2,4,234,234,1,0.044732,0.034467,0.000100,0.002765,0.000000,0.000001
random/ex645.top,8,5,5,7,2,4,54,54,1,0.010825,0.008936,0.000023,0.000531,0.000001,0.000000
random/ex646.top,8,8,5,8,3,4,870,870,1,0.231605,0.179423,0.000401,0.011841,0.000000,0.000001
random/ex647.top,8,7,6,8,2,4,320,320,1,0.079561,0.063339,0.000146,0.003947,0.000000,0.000000
random/ex648.top,8,8,8,10,2,4,375,375,1,0.095979,0.073695,0.000180,0.004956,0.000001,0.000000
random/ex649.top,8,7,7,9,2,4,188,188,1,0.046239,0.036735,0.000124,0.002167,0.000001,0.000000
random/ex65.top,5,11,6,8,2,4,100000,243,1323,403.847241,392.975454,0.114678,1.297452,0.000001,0.000000
random/ex650.top,8,7,8,10,2,4,470,470,1,0.161504,0.137561,0.000251,0.005824,0.000001,0.000000
random/ex651.top,8,6,4,6,2,4,224,224,1,0.077311,0.054992,0.000094,0.002438,0.000000,0.000000
random/ex652.top,8,7,8,10,2,4,234,234,1,0.055803,0.043725,0.000105,0.002870,0.000000,0.000000
random/ex653.top,8,5,5,7,2,4,130,130,1,0.025759,0.020789,0.000049,0.001312,0.000000,0.000001
random/ex654.top,8,5,6,8,2,4,84,84,1,0.017016,0.013784,0.000035,0.000807,0.000001,0.000000
random/ex655.top,8,6,6,8,2,4,138,138,1,0.033048,0.026901,0.000064,0.001563,0.000001,0.000000
random/ex656.top,10,10,3,5,2,4,11830,9858,2,6.003133,4.547904,0.007621,0.408659,0.000001,0.000000
random/ex657.top,9,7,8,10,2,4,262,262,1,0.066169,0.052490,0.000122,0.003610,0.000000,0.000001
random/ex658.top,8,7,3,5,2,4,486,225,3,0.119043,0.093311,0.000205,0.005676,0.000000,0.000001
random/ex659.top,9,9,7,9,2,4,2436,2058,3,1.067265,0.674292,0.001332,0.093562,0.000000,0.000001
random/ex66.top,5,9,6,8,2,4,5357,234,85,2.204446,1.828667,0.003208,0.037652,0.000000,0.000001
random/ex660.top,9,8,5,8,3,4,3580,3580,1,1.143085,0.914889,0.001744,0.059166,0.000001,0.000015
random/ex661.top,9,13,2,4,2,4,19464,8319,15,12.681902,9.159029,0.015030,0.813426,0.000001,0.000001
random/ex662.top,9,12,4,6,2,4,41067,11382,18,44.031023,38.431164,0.033558,1.456901,0.000001,0.000000
random/ex663.top,8,7,7,9,2,4,439,439,1,0.113227,0.090861,0.000206,0.005255,0.000001,0.000000
random/ex664.top,8,7,7,9,2,4,324,193,3,0.086709,0.069374,0.000145,0.003657,0.000000,0.000001
random/ex665.top,8,6,7,9,2,4,79,79,1,0.018687,0.015051,0.000035,0.000907,0.000001,0.000000
random/ex666.top,10,11,4,6,2,4,6111,4887,3,2.409552,1.802846,0.003938,0.159871,0.000000,0.000001
random/ex667.top,10,10,3,6,3,4,12156,4185,5,5.572049,4.485106,0.007957,0.265812,0.000000,0.000001
random/ex668.top,10,10,2,5,3,4,18204,13038,3,9.781854,8.064556,0.012350,0.541619,0.000000,0.000001
random/ex669.top,9,8,9,11,2,4,300,300,1,0.074293,0.056411,0.000142,0.004768,0.000001,0.000000
random/ex67.top,5,10,7,9,2,4,3976,126,78,1.536109,1.252397,0.002400,0.028285,0.000000,0.000001
random/ex670.top,8,6,6,8,2,4,319,319,1,0.061085,0.046845,0.000137,0.003538,0.000001,0.000000
random/ex671.top,9,8,7,9,2,4,302,302,1,0.078765,0.060270,0.000140,0.004672,0.000001,0.000000
random/ex672.top,9,7,5,7,2,4,105,105,1,0.023451,0.017700,0.000050,0.001418,0.000000,0.000001
random/ex673.top,8,7,4,6,2,4,336,336,1,0.074961,0.057746,0.000143,0.004072,0.000000,0.000001
random/ex674.top,9,9,8,10,2,4,361,361,1,0.105371,0.080187,0.000185,0.005753,0.000001,0.000000
random/ex675.top,9,9,3,5,2,4,2572,2572,1,0.789847,0.601708,0.001327,0.045802,0.000001,0.000000
random/ex676.top,8,6,4,7,3,4,832,832,1,0.169519,0.129991,0.000348,0.009140,0.000001,0.000000
random/ex677.top,9,11,3,5,2,4,5379,4131,3,2.047236,1.533371,0.003503,0.129165,0.000000,0.000001
random/ex678.top,8,7,4,6,2,4,330,330,1,0.075227,0.058607,0.000149,0.003784,0.000001,0.000000
random/ex679.top,9,8,5,7,2,4,1758,775,4,0.532693,0.423362,0.000881,0.024688,0.000001,0.000000
random/ex68.top,5,9,6,8,2,4,3676,207,52,1.232506,0.993944,0.001998,0.025233,0.000001,0.000000
random/ex680.top,9,8,3,5,2,4,882,882,1,0.239619,0.185670,0.000420,0.013638,0.000001,0.000000
random/ex681.top,9,9,7,9,2,4,817,817,1,0.241839,0.187380,0.000449,0.013959,0.000000,0.000001
random/ex682.top,9,8,8,11,3,4,129,129,1,0.032363,0.024594,0.000066,0.001903,0.000000,0.000001
random/ex683.top,9,9,6,8,2,4,1211,738,3,0.359860,0.275352,0.000681,0.019076,0.000000,0.000001
random/ex684.top,9,9,6,8,2,4,859,342,5,0.248599,0.190577,0.000473,0.012113,0.000000,0.000001
random/ex685.top,9,8,5,7,2,4,560,429,3,0.152185,0.118296,0.000270,0.007939,0.000001,0.000000
random/ex686.top,9,9,5,7,2,4,462,408,2,0.119908,0.088949,0.000244,0.007217,0.000001,0.000000
random/ex687.top,9,9,3,6,3,4,720,720,1,0.184125,0.133153,0.000373,0.012357,0.000001,0.000000
random/ex688.top,8,8,4,6,2,4,1368,972,3,0.351349,0.270645,0.000675,0.016867,0.000000,0.000001
random/ex689.top,9,9,4,6,2,4,684,537,3,0.181635,0.135406,0.000342,0.010451,0.000001,0.000000
random/ex69.top,5,8,8,11,3,4,897,96,23,0.238937,0.193031,0.000476,0.005799,0.000001,0.000000
random/ex690.top,8,7,4,6,2,4,1032,1032,1,0.239128,0.186240,0.000481,0.012778,0.000000,0.000001
random/ex691.top,9,11,5,7,2,4,27444,6309,8,20.690546,18.172878,0.021449,0.475708,0.000001,0.000000
random/ex692.top,9,12,4,6,2,4,4845,2250,7,1.814715,1.352035,0.003205,0.091900,0.000001,0.000000
random/ex693.top,9,11,4,6,2,4,31493,15408,7,24.124877,20.682592,0.025688,1.048371,0.000001,0.000000
random/ex694.top,9,11,5,7,2,4,30415,8865,12,23.492821,20.342289,0.024021,0.811643,0.000001,0.000000
random/ex695.top,9,10,4,6,2,4,1860,1593,2,0.597693,0.451147,0.001105,0.033469,0.000000,0.000001
random/ex696.top,9,10,6,8,2,4,3100,2456,3,1.100125,0.840452,0.001705,0.062745,0.000000,0.000001
random/ex697.top,9,9,4,7,3,4,1296,924,3,0.348757,0.260336,0.000688,0.019691,0.000000,0.000001
random/ex698.top,9,11,4,6,2,4,1740,1470,3,0.517940,0.371146,0.001046,0.030466,0.000000,0.000001
random/ex699.top,9,10,3,5,2,4,3222,2403,2,1.071725,0.818644,0.001721,0.061785,0.000001,0.000000
random/ex7.top,6,8,6,9,3,4,4911,216,52,1.746371,1.472491,0.002557,0.037738,0.000000,0.000001
random/ex70.top,5,9,7,10,3,4,36477,429,229,52.587240,49.989715,0.025121,0.264805,0.000001,0.000000
random/ex700.top,9,8,4,6,2,4,2459,729,5,0.713429,0.565423,0.001207,0.033363,0.000001,0.000000
random/ex701.top,9,9,4,6,2,4,1674,1230,3,0.472288,0.355276,0.000826,0.027241,0.000001,0.000000
random/ex702.top,9,7,3,5,2,4,441,441,1,0.096501,0.073621,0.000198,0.005887,0.000001,0.000000
random/ex703.top,9,6,6,8,2,4,183,183,1,0.034759,0.026272,0.000078,0.002235,0.000001,0.000000
random/ex704.top,9,11,3,5,2,4,53266,17664,10,76.627806,69.680085,0.044992,2.641450,0.000001,0.000000
random/ex705.top,8,7,5,7,2,4,1485,594,5,0.373690,0.298821,0.000692,0.016708,0.000001,0.000000
random/ex706.top,8,5,8,10,2,4,59,59,1,0.011121,0.008972,0.000027,0.000689,0.000000,0.000000
random/ex707.top,8,6,7,9,2,4,169,169,1,0.033563,0.025250,0.000075,0.001836,0.000000,0.000001
random/ex708.top,9,9,5,7,2,4,2793,2793,1,0.890827,0.680948,0.001523,0.055870,0.000001,0.000000
random/ex709.top,9,9,5,7,2,4,1167,721,3,0.327580,0.248539,0.000649,0.018721,0.000000,0.000000
random/ex71.top,5,9,6,8,2,4,1426,243,15,0.433456,0.339780,0.000771,0.010070,0.000001,0.000000
random/ex710.top,9,9,4,6,2,4,11552,5056,4,4.763390,3.913891,0.006759,0.195454,0.000000,0.000001
random/ex711.top,9,8,5,7,2,4,1740,1740,1,0.445499,0.334140,0.000849,0.031066,0.000001,0.000000
random/ex712.top,9,9,3,5,2,4,1539,1161,2,0.394484,0.288410,0.000783,0.024996,0.000001,0.000000
random/ex713.top,9,10,2,4,2,4,6823,6547,2,2.726148,2.078878,0.003934,0.189498,0.000001,0.000000
random/ex714.top,9,9,3,5,2,4,3706,3706,1,1.207969,0.927140,0.001906,0.075791,0.000001,0.000000
random/ex715.top,9,8,3,6,3,4,639,639,1,0.143212,0.103989,0.000313,0.010432,0.000001,0.000000
random/ex716.top,9,6,5,7,2,4,546,546,1,0.108208,0.082908,0.000229,0.007375,0.000000,0.000001
random/ex717.top,9,9,3,5,2,4,2550,2550,1,0.804041,0.607171,0.001388,0.049185,0.000000,0.000001
random/ex718.top,9,8,5,7,2,4,1341,1341,1,0.371212,0.285005,0.000650,0.022501,0.000000,0.000001
random/ex719.top,9,9,7,9,2,4,2610,522,6,0.842255,0.652422,0.001446,0.036977,0.000001,0.000000
random/ex72.top,5,7,7,9,2,4,1088,216,10,0.282905,0.230779,0.000471,0.006710,0.000000,0.000001
random/ex720.top,8,6,7,9,2,4,107,107,1,0.025095,0.020404,0.000049,0.001164,0.000000,0.000001
random/ex721.top,10,9,7,10,3,4,1394,1260,2,0.396590,0.290219,0.000738,0.028396,0.000001,0.000000
random/ex722.top,10,8,4,6,2,4,1428,1428,1,0.370032,0.272757,0.000695,0.026332,0.000001,0.000000
random/ex723.top,8,6,7,9,2,4,271,271,1,0.056941,0.044558,0.000116,0.003145,0.000001,0.000000
random/ex724.top,9,8,7,9,2,4,687,687,1,0.169982,0.126171,0.000347,0.010618,0.000000,0.000001
random/ex725.top,9,6,7,9,2,4,156,156,1,0.034256,0.026772,0.000071,0.002073,0.000001,0.000000
random/ex726.top,8,8,8,10,2,4,963,963,1,0.271520,0.208304,0.000469,0.014080,0.000001,0.000000
random/ex727.top,8,7,7,10,3,4,190,190,1,0.042252,0.031407,0.000084,0.002386,0.000001,0.000000
random/ex728.top,8,7,6,8,2,4,397,397,1,0.093292,0.072682,0.000238,0.004804,0.000001,0.000000
random/ex729.top,8,6,5,7,2,4,90,90,1,0.020154,0.016376,0.000040,0.000986,0.000001,0.000000
random/ex73.top,5,8,4,7,3,4,3816,420,23,1.232011,1.006242,0.001920,0.025642,0.000001,0.000001
random/ex730.top,8,5,6,8,2,4,88,88,1,0.017155,0.013946,0.000036,0.000905,0.000001,0.000000
random/ex731.top,9,9,5,7,2,4,1470,1470,1,0.419399,0.313205,0.000756,0.025764,0.000001,0.000000
random/ex732.top,8,6,7,9,2,4,371,371,1,0.078116,0.059870,0.000149,0.004188,0.000000,0.000000
random/ex733.top,9,10,7,9,2,4,11507,1053,22,5.944332,4.917011,0.007427,0.209185,0.000001,0.000000
random/ex734.top,9,9,6,8,2,4,1923,1566,2,0.555437,0.414048,0.001022,0.033863,0.000001,0.000000
random/ex735.top,9,8,5,7,2,4,1227,729,4,0.324689,0.243633,0.000601,0.018544,0.000001,0.000000
random/ex736.top,9,8,6,8,2,4,939,939,1,0.256825,0.196688,0.000438,0.015312,0.000000,0.000001
random/ex737.top,8,7,6,8,2,4,364,364,1,0.092482,0.073028,0.000198,0.004628,0.000000,0.000001
random/ex738.top,10,8,3,5,2,4,1224,1224,1,0.307907,0.225721,0.000623,0.027009,0.000001,0.000000
random/ex739.top,8,8,4,7,3,4,1737,1277,3,0.473835,0.362364,0.000857,0.023657,0.000000,0.000001
random/ex74.top,5,7,8,10,2,4,1478,213,22,0.424893,0.354722,0.000647,0.008932,0.000001,0.000000
random/ex740.top,8,8,8,10,2,4,651,450,3,0.155930,0.118952,0.000323,0.007758,0.000000,0.000001
random/ex741.top,8,8,5,8,3,4,1326,831,3,0.375825,0.295357,0.000638,0.018560,0.000000,0.000001
random/ex742.top,9,8,3,5,2,4,469,469,1,0.118647,0.087164,0.000218,0.007851,0.000000,0.000001
random/ex743.top,8,9,3,5,2,4,852,624,2,0.223707,0.166247,0.000447,0.011680,0.000000,0.000000
random/ex744.top,9,8,7,9,2,4,1974,1974,1,0.572299,0.446385,0.000999,0.032845,0.000001,0.000000
random/ex745.top,9,9,5,8,3,4,4090,2718,3,1.291456,0.973674,0.002406,0.087600,0.000001,0.000000
random/ex746.top,8,8,6,8,2,4,395,395,1,0.098939,0.075459,0.000185,0.005414,0.000001,0.000000
random/ex747.top,8,7,7,9,2,4,176,176,1,0.040553,0.031377,0.000080,0.002155,0.000001,0.000000
random/ex748.top,8,8,5,7,2,4,706,580,3,0.184738,0.141168,0.000359,0.009235,0.000001,0.000000
random/ex749.top,8,9,4,6,2,4,2838,936,5,0.927428,0.728500,0.001529,0.042011,0.000000,0.000001
random/ex75.top,5,9,6,8,2,4,5858,151,146,2.386224,2.002102,0.003051,0.042377,0.000001,0.000000
random/ex750.top,8,6,7,9,2,4,96,96,1,0.018309,0.014045,0.000043,0.001217,0.000001,0.000000
random/ex751.top,9,8,4,6,2,4,1642,1642,1,0.487406,0.384614,0.000819,0.028766,0.000001,0.000000
random/ex752.top,8,8,5,7,2,4,1059,1059,1,0.274212,0.210698,0.000529,0.016002,0.000000,0.000001
random/ex753.top,9,8,4,6,2,4,912,912,1,0.237067,0.179629,0.000451,0.014850,0.000000,0.000001
random/ex754.top,9,8,4,6,2,4,1044,1044,1,0.262785,0.197429,0.000532,0.017468,0.000001,0.000000
random/ex755.top,9,8,6,8,2,4,342,342,1,0.087525,0.066712,0.000161,0.005341,0.000000,0.000001
random/ex756.top,9,7,3,5,2,4,1398,1398,1,0.365315,0.287539,0.000748,0.022531,0.000000,0.000001
random/ex757.top,9,7,4,6,2,4,918,918,1,0.217010,0.167406,0.000411,0.013011,0.000001,0.000000
random/ex758.top,9,8,4,7,3,4,1167,1167,1,0.275856,0.202119,0.000563,0.018968,0.000001,0.000000
random/ex759.top,9,6,6,8,2,4,111,111,1,0.024072,0.018565,0.000048,0.001567,0.000001,0.000000
random/ex76.top,5,11,8,11,3,4,71863,312,899,204.731697,198.078145,0.061418,0.578350,0.000000,0.000001
random/ex760.top,9,6,6,8,2,4,147,147,1,0.029463,0.022707,0.000059,0.001792,0.000001,0.000000
random/ex761.top,9,7,5,7,2,4,429,429,1,0.099012,0.076652,0.000228,0.005934,0.000000,0.000001
random/ex762.top,9,6,6,8,2,4,178,178,1,0.035744,0.027234,0.000074,0.002360,0.000000,0.000000
random/ex763.top,10,7,6,8,2,4,732,732,1,0.170454,0.129738,0.000381,0.011798,0.000001,0.000001
random/ex764.top,9,7,6,8,2,4,335,335,1,0.079127,0.061802,0.000152,0.004653,0.000000,0.000000
random/ex765.top,9,6,7,9,2,4,388,388,1,0.077646,0.059353,0.000162,0.004873,0.000000,0.000000
random/ex766.top,10,8,5,8,3,4,3672,3672,1,1.046686,0.773600,0.002134,0.085719,0.000000,0.000001
random/ex767.top,10,8,5,7,2,4,2258,2258,1,0.621985,0.466784,0.001168,0.043669,0.000000,0.000001
random/ex768.top,9,9,2,4,2,4,1116,900,2,0.287696,0.207827,0.000586,0.017634,0.000001,0.000000
random/ex769.top,10,10,3,5,2,4,19362,4752,10,11.210083,9.336640,0.013797,0.590971,0.000001,0.000000
random/ex77.top,5,8,5,7,2,4,6857,324,43,2.745554,2.345700,0.003671,0.045054,0.000001,0.000000
random/ex770.top,10,10,4,7,3,4,29409,16272,3,20.514278,17.308409,0.021744,1.188462,0.000001,0.000000
random/ex771.top,10,10,2,4,2,4,21448,5130,12,11.761795,9.923215,0.015512,0.403041,0.000000,0.000001
random/ex772.top,10,9,5,8,3,4,6572,1404,11,2.176420,1.697203,0.004201,0.123989,0.000001,0.000000
random/ex773.top,10,9,4,6,2,4,1269,1116,2,0.311933,0.220667,0.000687,0.024038,0.000001,0.000000
random/ex774.top,10,8,4,6,2,4,4080,1944,4,1.156538,0.879948,0.002387,0.087210,0.000000,0.000001
random/ex775.top,10,9,5,7,2,4,1341,1341,1,0.406964,0.304718,0.000707,0.027357,0.000000,0.000000
random/ex776.top,10,8,5,7,2,4,363,363,1,0.097185,0.072282,0.000212,0.006837,0.000001,0.000000
random/ex777.top,9,10,5,7,2,4,2064,2064,1,0.675300,0.511105,0.001107,0.040475,0.000000,0.000001
random/ex778.top,9,10,4,6,2,4,3331,3331,1,1.203686,0.925615,0.001767,0.072764,0.000000,0.000001
random/ex779.top,9,6,6,8,2,4,143,143,1,0.029324,0.022160,0.000060,0.001856,0.000000,0.000001
random/ex78.top,5,8,7,9,2,4,3355,319,34,1.242186,1.050221,0.001676,0.022324,0.000000,0.000001
random/ex780.top,10,13,5,7,2,4,19035,2475,28,13.503016,11.260205,0.015223,0.432776,0.000000,0.000001
random/ex781.top,10,13,6,8,2,4,36205,9108,24,33.484046,28.767396,0.032595,1.306177,0.000000,0.000001
random/ex782.top,10,11,3,5,2,4,14964,10728,4,7.051671,5.347817,0.010616,0.572092,0.000001,0.000000
random/ex783.top,10,11,5,7,2,4,3336,1968,3,1.191334,0.887624,0.002191,0.073348,0.000001,0.000000
random/ex784.top,10,12,3,5,2,4,45552,9768,16,48.622880,43.246731,0.036371,1.281967,0.000001,0.000001
random/ex785.top,10,11,4,7,3,4,9492,2688,10,4.061086,3.171220,0.006291,0.200285,0.000000,0.000001
random/ex786.top,10,11,5,7,2,4,12151,11465,2,6.138176,4.825106,0.008259,0.416421,0.000001,0.000000
random/ex787.top,10,10,4,6,2,4,7761,2460,5,2.901216,2.230627,0.004858,0.157144,0.000000,0.000001
random/ex788.top,10,10,7,9,2,4,3013,2621,2,1.029882,0.767102,0.001725,0.068889,0.000001,0.000000
random/ex789.top,10,11,4,7,3,4,13455,12351,2,6.582059,5.157035,0.009022,0.471296,0.000001,0.000000
random/ex79.top,5,9,7,9,2,4,21842,291,274,19.109384,17.657556,0.014623,0.152151,0.000000,0.000000
random/ex790.top,10,10,6,8,2,4,3192,3192,1,1.101743,0.837067,0.001795,0.072065,0.000000,0.000001
random/ex791.top,10,10,5,7,2,4,9891,4014,5,4.419759,3.557361,0.006495,0.198902,0.000000,0.000001
random/ex792.top,9,10,5,7,2,4,5760,4338,2,2.054422,1.568521,0.003292,0.124027,0.000000,0.000000
random/ex793.top,9,9,3,6,3,4,5388,5388,1,1.795628,1.385350,0.002821,0.104464,0.000001,0.000000
random/ex794.top,9,8,5,8,3,4,2748,2748,1,0.880821,0.696449,0.001563,0.053727,0.000001,0.000000
random/ex795.top,10,9,7,9,2,4,1857,1857,1,0.607730,0.474295,0.000950,0.036541,0.000000,0.000001
random/ex796.top,10,9,6,8,2,4,1873,1873,1,0.601327,0.462361,0.001005,0.037288,0.000000,0.000001
random/ex797.top,10,7,7,9,2,4,246,246,1,0.057445,0.044184,0.000108,0.004041,0.000001,0.000000
random/ex798.top,9,8,4,6,2,4,894,441,4,0.223917,0.170703,0.000428,0.012577,0.000001,0.000000
random/ex799.top,9,8,6,8,2,4,574,393,3,0.143218,0.109154,0.000278,0.008127,0.000001,0.000000
random/ex8.top,6,7,8,10,2,4,1566,135,26,0.427291,0.353806,0.000768,0.010725,0.000001,0.000000
random/ex80.top,5,9,7,9,2,4,22650,324,203,22.279770,20.738112,0.015267,0.155559,0.000001,0.000000
random/ex800.top,9,8,5,7,2,4,1881,504,6,0.571260,0.456580,0.001050,0.028037,0.000001,0.000000
random/ex801.top,9,8,7,9,2,4,747,453,4,0.237627,0.192995,0.000374,0.011155,0.000001,0.000000
random/ex802.top,9,10,5,7,2,4,7428,2034,7,3.259176,2.663445,0.004773,0.150064,0.000000,0.000001
random/ex803.top,9,9,4,7,3,4,3667,1335,5,1.237091,0.960016,0.002036,0.066716,0.000001,0.000000
random/ex804.top,9,10,5,7,2,4,2406,2142,2,0.820890,0.632341,0.001306,0.048221,0.000001,0.000000
random/ex805.top,9,8,3,6,3,4,1454,1454,1,0.410568,0.318304,0.000706,0.024567,0.000000,0.000001
random/ex806.top,9,9,4,6,2,4,945,885,2,0.263417,0.196853,0.000536,0.016309,0.000001,0.000000
random/ex807.top,9,10,4,6,2,4,3405,2232,5,1.195380,0.917340,0.001914,0.064053,0.000001,0.000000
random/ex808.top,9,8,9,12,3,4,697,697,1,0.177029,0.134524,0.000380,0.010762,0.000000,0.000001
random/ex809.top,9,9,6,8,2,4,4009,4009,1,1.408378,1.089324,0.002193,0.080828,0.000000,0.000001
random/ex81.top,5,9,9,11,2,4,31708,324,238,34.581323,32.457598,0.045304,0.214686,0.000001,0.000000
random/ex810.top,9,7,6,9,3,4,348,348,1,0.117813,0.099519,0.000161,0.004726,0.000001,0.000000
random/ex811.top,10,10,6,8,2,4,1656,1656,1,0.507883,0.370043,0.000949,0.034184,0.000001,0.000000
random/ex812.top,9,9,5,7,2,4,1473,1473,1,0.377861,0.274422,0.000833,0.023490,0.000000,0.000001
random/ex813.top,9,9,5,7,2,4,7095,7095,1,2.598551,2.042416,0.003930,0.153621,0.000001,0.000000
random/ex814.top,9,8,3,5,2,4,2541,2541,1,0.689175,0.525007,0.001243,0.043941,0.000000,0.000001
random/ex815.top,10,8,3,5,2,4,2178,2178,1,0.582853,0.432360,0.001093,0.040400,0.000001,0.000000
random/ex816.top,9,7,6,8,2,4,864,864,1,0.202191,0.155254,0.000430,0.012103,0.000001,0.000000
random/ex817.top,9,7,4,6,2,4,636,636,1,0.135741,0.101640,0.000302,0.008714,0.000001,0.000000
random/ex818.top,9,6,5,7,2,4,396,396,1,0.074914,0.057251,0.000168,0.004765,0.000001,0.000000
random/ex819.top,9,7,5,7,2,4,558,558,1,0.124215,0.094715,0.000261,0.007546,0.000000,0.000001
random/ex82.top,5,8,6,8,2,4,2646,161,46,0.858269,0.717658,0.001265,0.015767,0.000000,0.000001
random/ex820.top,9,6,5,7,2,4,330,330,1,0.062488,0.047782,0.000145,0.004040,0.000001,0.000000
random/ex821.top,9,7,3,6,3,4,1483,1483,1,0.379017,0.292065,0.000700,0.022671,0.000001,0.000000
random/ex822.top,9,7,5,7,2,4,1035,1035,1,0.230770,0.173416,0.000503,0.016792,0.000001,0.000000
random/ex823.top,9,9,4,6,2,4,1660,1660,1,0.474656,0.353584,0.000835,0.031386,0.000001,0.000000
random/ex824.top,9,9,5,8,3,4,2104,2104,1,0.665362,0.490782,0.001156,0.042002,0.000001,0.000000
random/ex825.top,9,9,6,9,3,4,664,664,1,0.279273,0.135237,0.000465,0.053414,0.000001,0.000000
random/ex826.top,9,8,6,8,2,4,913,913,1,1.272057,0.254974,0.001649,0.765110,0.000004,0.000002
random/ex827.top,9,8,5,7,2,4,955,955,1,0.545178,0.287160,0.000566,0.093246,0.000001,0.000001
random/ex828.top,9,9,4,6,2,4,3312,3312,1,1.230103,0.934968,0.001947,0.061545,0.000000,0.000001
random/ex829.top,9,10,6,8,2,4,1188,1188,1,0.388397,0.290642,0.000723,0.023714,0.000000,0.000001
random/ex83.top,5,8,6,9,3,4,5555,204,76,2.098234,1.780003,0.002878,0.035678,0.000000,0.000001
random/ex830.top,9,11,4,6,2,4,39950,11772,15,45.656806,37.982359,0.031385,2.243963,0.000001,0.000000
random/ex831.top,9,8,7,9,2,4,612,477,2,0.163481,0.125170,0.000401,0.009032,0.000001,0.000000
random/ex832.top,9,8,7,9,2,4,679,679,1,0.228212,0.185974,0.000335,0.011224,0.000000,0.000001
random/ex833.top,9,10,6,8,2,4,1233,822,2,0.349333,0.257704,0.000713,0.019739,0.000000,0.000001
random/ex834.top,9,11,5,7,2,4,8694,4968,6,3.862708,3.081977,0.006066,0.186662,0.000001,0.000000
random/ex835.top,9,9,4,6,2,4,1794,945,3,1.176702,0.370545,0.000984,0.027627,0.000001,0.000000
random/ex836.top,9,10,6,8,2,4,3807,1944,5,1.280596,0.976416,0.002161,0.063123,0.000000,0.000001
random/ex837.top,9,9,3,6,3,4,3528,2760,3,1.548354,0.834882,0.003421,0.236079,0.000001,0.000000
random/ex838.top,10,9,7,9,2,4,756,756,1,0.222000,0.168055,0.000399,0.014139,0.000000,0.000001
random/ex839.top,9,8,5,7,2,4,1198,1198,1,0.697308,0.382369,0.000702,0.019873,0.000001,0.000000
random/ex84.top,5,8,6,8,2,4,9354,561,57,4.507283,3.970275,0.005144,0.065142,0.000002,0.000001
random/ex840.top,9,7,6,8,2,4,545,545,1,0.165911,0.137019,0.000230,0.007831,0.000000,0.000000
random/ex841.top,9,7,6,8,2,4,413,413,1,0.202454,0.081126,0.000452,0.013720,0.000001,0.000001
random/ex842.top,9,10,6,8,2,4,15114,5409,4,8.809259,7.270518,0.010038,0.521330,0.000000,0.000001
random/ex843.top,9,9,5,8,3,4,1972,717,5,0.717565,0.579689,0.001022,0.032763,0.000001,0.000000
random/ex844.top,9,9,7,9,2,4,3331,1651,4,1.254411,1.011289,0.001939,0.062622,0.000001,0.000000
random/ex845.top,9,9,4,7,3,4,4076,4076,1,1.627399,1.198924,0.002097,0.104797,0.000001,0.000000
random/ex846.top,9,9,7,10,3,4,921,921,1,0.293775,0.229422,0.000454,0.016240,0.000001,0.000000
random/ex847.top,9,12,5,7,2,4,6072,2596,7,2.775431,2.124091,0.004120,0.136664,0.000000,0.000001
random/ex848.top,9,11,5,7,2,4,3479,2890,4,1.858638,1.082078,0.002161,0.122677,0.000001,0.000000
random/ex849.top,9,10,5,7,2,4,2491,2227,2,1.204858,0.680108,0.001457,0.315139,0.000001,0.000000
random/ex85.top,5,9,6,8,2,4,6960,207,120,3.225673,2.764965,0.004001,0.043812,0.000000,0.000001
random/ex850.top,9,10,5,7,2,4,21270,20155,2,14.727882,11.927617,0.031991,0.875775,0.000002,0.000001
random/ex851.top,9,9,6,8,2,4,2551,2551,1,0.896767,0.708499,0.001428,0.047725,0.000000,0.000001
random/ex852.top,9,7,7,9,2,4,386,386,1,0.084228,0.064128,0.000175,0.005220,0.000001,0.000000
random/ex853.top,9,8,3,5,2,4,1602,1602,1,0.423280,0.322033,0.000796,0.025327,0.000000,0.000001
random/ex854.top,9,8,4,7,3,4,2040,2040,1,0.516286,0.390372,0.001038,0.031225,0.000001,0.000000
random/ex855.top,9,7,4,6,2,4,1380,1380,1,0.325737,0.250744,0.000635,0.020199,0.000000,0.000001
random/ex856.top,10,8,6,8,2,4,687,687,1,0.181238,0.138061,0.000375,0.011741,0.000001,0.000000
random/ex857.top,9,7,4,7,3,4,591,591,1,0.125108,0.093618,0.000283,0.007940,0.000000,0.000000
random/ex858.top,10,8,5,7,2,4,648,648,1,0.171741,0.129842,0.000307,0.011118,0.000000,0.000001
random/ex859.top,10,8,4,6,2,4,1077,1077,1,0.279980,0.211155,0.000594,0.018547,0.000001,0.000000
random/ex86.top,5,7,6,8,2,4,1233,216,21,0.379657,0.318686,0.000640,0.007096,0.000000,0.000001
random/ex860.top,10,8,7,9,2,4,637,637,1,0.152117,0.114188,0.000308,0.010661,0.000001,0.000000
random/ex861.top,10,9,5,7,2,4,1672,1672,1,0.482832,0.361637,0.000899,0.031738,0.000001,0.000000
random/ex862.top,10,10,5,7,2,4,4738,4738,1,1.832478,1.414140,0.002795,0.122194,0.000001,0.000000
random/ex863.top,10,9,6,8,2,4,2066,2066,1,0.676476,0.471489,0.001266,0.085542,0.000001,0.000000
random/ex864.top,10,9,4,7,3,4,4855,4855,1,2.245822,1.394213,0.002580,0.333533,0.000001,0.000000
random/ex865.top,10,8,5,7,2,4,576,576,1,0.149182,0.112799,0.000288,0.009839,0.000001,0.000000
random/ex866.top,10,8,6,8,2,4,3024,756,5,0.952420,0.764091,0.001607,0.046497,0.000000,0.000001
random/ex867.top,10,9,5,7,2,4,892,892,1,0.298922,0.234133,0.000476,0.017640,0.000001,0.000000
random/ex868.top,10,9,7,9,2,4,948,948,1,0.300912,0.229255,0.000493,0.018253,0.000001,0.000000
random/ex869.top,10,7,4,6,2,4,498,498,1,0.121152,0.094299,0.000217,0.008003,0.000001,0.000000
random/ex87.top,5,8,6,8,2,4,1155,153,19,0.311420,0.251201,0.000603,0.006966,0.000000,0.000001
random/ex870.top,10,11,3,5,2,4,14151,5328,5,7.481238,5.993982,0.009133,0.475128,0.000000,0.000001
random/ex871.top,10,10,4,6,2,4,2112,2112,1,0.693822,0.518813,0.001195,0.047936,0.000001,0.000000
random/ex872.top,10,10,6,9,3,4,1946,1546,2,0.616708,0.461164,0.001076,0.037982,0.000001,0.000000
random/ex873.top,10,10,4,7,3,4,2715,1842,3,0.971195,0.718654,0.001634,0.056029,0.000001,0.000000
random/ex874.top,10,10,4,6,2,4,5623,3938,3,2.162006,1.619123,0.003361,0.164696,0.000001,0.000000
random/ex875.top,10,10,4,6,2,4,6372,4860,2,2.329337,1.770559,0.004091,0.144822,0.000000,0.000001
random/ex876.top,10,9,6,9,3,4,870,870,1,0.265871,0.202576,0.000458,0.016914,0.000000,0.000001
random/ex877.top,10,10,4,6,2,4,7092,7092,1,2.840608,2.187115,0.004028,0.193968,0.000000,0.000001
random/ex878.top,10,10,4,8,4,4,7317,6467,2,3.770113,2.431251,0.007922,0.495099,0.000000,0.000001
random/ex879.top,10,10,4,6,2,4,7786,7786,1,3.263280,2.352225,0.004706,0.246704,0.000000,0.000001
random/ex88.top,5,8,9,11,2,4,2926,161,65,1.102759,0.925376,0.001462,0.019481,0.000001,0.000000
random/ex880.top,10,9,5,7,2,4,2043,1348,3,1.098091,0.526122,0.001159,0.453738,0.000002,0.000002
random/ex881.top,10,9,5,7,2,4,2025,2025,1,0.917002,0.649204,0.001014,0.040630,0.000001,0.000000
random/ex882.top,10,9,5,7,2,4,5232,5232,1,1.849860,1.417224,0.003060,0.117203,0.000001,0.000000
random/ex883.top,10,9,4,6,2,4,3132,3132,1,0.986754,0.762432,0.001741,0.060760,0.000001,0.000000
random/ex884.top,10,9,4,6,2,4,1890,1890,1,0.528936,0.387914,0.001018,0.037875,0.000001,0.000000
random/ex885.top,10,9,4,7,3,4,4644,3060,3,1.544223,1.191783,0.002466,0.095026,0.000000,0.000001
random/ex886.top,10,9,5,7,2,4,13696,5688,4,6.176854,5.110767,0.008806,0.284441,0.000001,0.000001
random/ex887.top,10,11,3,6,3,4,20952,13680,3,12.107497,9.688121,0.016211,0.815365,0.000001,0.000000
random/ex888.top,10,11,2,4,2,4,6588,4968,3,2.518607,1.820175,0.004263,0.198898,0.000001,0.000000
random/ex889.top,10,10,3,5,2,4,3942,3591,2,1.316620,0.966133,0.002317,0.095195,0.000001,0.000000
random/ex89.top,5,7,7,9,2,4,1864,243,12,0.537583,0.450321,0.000876,0.010989,0.000000,0.000001
random/ex890.top,10,9,5,7,2,4,2034,1224,3,0.588759,0.444716,0.001165,0.041698,0.000001,0.000000
random/ex891.top,10,10,7,9,2,4,2877,2877,1,1.000748,0.762377,0.001721,0.066275,0.000001,0.000000
random/ex892.top,10,9,4,6,2,4,1211,1211,1,0.340371,0.250649,0.000683,0.029803,0.000001,0.000000
random/ex893.top,10,9,6,8,2,4,1194,1194,1,0.354773,0.266901,0.000686,0.029466,0.000001,0.000000
random/ex894.top,10,12,6,9,3,4,8568,5400,5,3.502948,2.527019,0.006411,0.304225,0.000001,0.000000
random/ex895.top,10,11,4,6,2,4,9762,3726,8,4.047946,3.071649,0.006894,0.287732,0.000000,0.000001
random/ex896.top,10,11,4,6,2,4,16140,5832,13,8.756940,6.301899,0.011440,1.060496,0.000000,0.000001
random/ex897.top,10,10,6,8,2,4,8775,1215,14,3.950589,3.050252,0.005904,0.316295,0.000000,0.000001
random/ex898.top,10,11,4,6,2,4,9027,6885,3,3.670678,2.699748,0.005897,0.311069,0.000001,0.000000
random/ex899.top,10,10,2,5,3,4,4455,3195,3,2.455395,1.139118,0.013243,0.870340,0.000001,0.000000
random/ex9.top,6,10,6,8,2,4,14768,675,69,9.773450,8.416876,0.028003,0.262151,0.000001,0.000000
random/ex90.top,5,10,3,6,3,4,17859,528,146,14.317874,12.827215,0.011754,0.150167,0.000000,0.000001
random/ex900.top,10,8,3,5,2,4,1989,837,4,0.577843,0.453736,0.000960,0.033822,0.000001,0.000001
random/ex901.top,10,9,5,7,2,4,2466,972,4,0.727609,0.550204,0.001327,0.051351,0.000001,0.000001
random/ex902.top,10,9,4,6,2,4,2628,2628,1,0.782984,0.580180,0.001386,0.055949,0.000001,0.000000
random/ex903.top,10,8,4,6,2,4,668,668,1,0.179817,0.135352,0.000328,0.013552,0.000001,0.000000
random/ex904.top,10,8,5,7,2,4,2520,2520,1,0.750951,0.569003,0.001290,0.053612,0.000001,0.000000
random/ex905.top,10,7,5,7,2,4,483,483,1,0.122043,0.083089,0.000451,0.010784,0.000001,0.000000
random/ex906.top,10,8,4,6,2,4,1986,1986,1,1.053452,0.705093,0.001156,0.050123,0.000001,0.000000
random/ex907.top,10,6,5,7,2,4,260,260,1,0.053946,0.040562,0.000108,0.003639,0.000000,0.000001
random/ex908.top,10,9,5,7,2,4,2034,1602,2,0.553874,0.403054,0.001147,0.041754,0.000001,0.000000
random/ex909.top,10,10,4,6,2,4,4941,2556,3,1.751328,1.308209,0.003110,0.128299,0.000000,0.000001
random/ex91.top,5,9,5,8,3,4,6270,255,80,2.772177,2.302482,0.009665,0.050964,0.000001,0.000000
random/ex910.top,10,11,1,3,2,4,7161,2916,6,2.724280,1.961770,0.004697,0.266889,0.000001,0.000000
random/ex911.top,10,8,4,6,2,4,1907,537,6,0.564066,0.442553,0.000908,0.032884,0.000000,0.000000
random/ex912.top,10,9,7,10,3,4,354,354,1,0.098968,0.072821,0.000190,0.006901,0.000001,0.000000
random/ex913.top,10,9,4,7,3,4,10242,2916,5,5.032370,4.193094,0.006703,0.199433,0.000000,0.000001
random/ex914.top,10,9,5,7,2,4,1449,1449,1,0.695759,0.593326,0.000783,0.026837,0.000001,0.000001
random/ex915.top,10,12,3,5,2,4,67614,18306,9,106.692277,97.385069,0.064301,3.027409,0.000001,0.000001
random/ex916.top,10,11,3,5,2,4,8352,6624,2,3.565124,2.752667,0.005121,0.231079,0.000001,0.000000
random/ex917.top,10,10,5,7,2,4,4251,4251,1,1.623876,1.258295,0.002494,0.099841,0.000000,0.000001
random/ex918.top,10,9,4,8,4,4,3051,3051,1,1.092866,0.847285,0.001702,0.076705,0.000000,0.000001
random/ex919.top,10,9,5,7,2,4,8316,3080,5,3.492028,2.843099,0.005063,0.185737,0.000000,0.000001
random/ex92.top,5,8,6,8,2,4,3149,207,33,1.162820,0.958790,0.001565,0.020352,0.000000,0.000001
random/ex920.top,10,9,5,8,3,4,5830,2770,4,2.543281,2.092048,0.003346,0.120746,0.000001,0.000000
random/ex921.top,10,8,4,7,3,4,1773,1773,1,0.529740,0.406979,0.000950,0.035128,0.000000,0.000001
random/ex922.top,10,10,4,7,3,4,1741,1741,1,0.580216,0.435211,0.000953,0.037687,0.000000,0.000001
random/ex923.top,10,9,6,8,2,4,1529,1529,1,0.521305,0.403100,0.000797,0.030550,0.000001,0.000000
random/ex924.top,10,8,7,9,2,4,2352,2352,1,0.668344,0.509897,0.001388,0.047360,0.000000,0.000001
random/ex925.top,10,8,4,6,2,4,1889,1889,1,0.516283,0.388791,0.000932,0.035012,0.000001,0.000000
random/ex926.top,10,8,4,6,2,4,1705,1705,1,0.504856,0.390821,0.000830,0.032695,0.000001,0.000000
random/ex927.top,10,9,3,5,2,4,3515,2373,3,1.178681,0.903790,0.002035,0.072579,0.000001,0.000000
random/ex928.top,10,11,3,5,2,4,49458,3483,53,61.661023,56.453154,0.042231,1.374456,0.000000,0.000001
random/ex929.top,10,10,2,5,3,4,19464,5868,5,11.485924,9.442753,0.013471,0.380809,0.000001,0.000000
random/ex93.top,5,9,7,9,2,4,19153,315,146,15.215818,13.785729,0.028021,0.143603,0.000000,0.000001
random/ex930.top,10,10,5,8,3,4,2562,2562,1,0.978837,0.764432,0.001587,0.061205,0.000001,0.000000
random/ex931.top,10,9,6,8,2,4,2834,2834,1,0.955669,0.735756,0.001542,0.065177,0.000001,0.000000
random/ex932.top,10,9,5,7,2,4,2463,2463,1,0.815001,0.628203,0.001398,0.053276,0.000001,0.000000
random/ex933.top,10,9,6,8,2,4,3494,3494,1,1.183465,0.910306,0.002049,0.083925,0.000001,0.000000
random/ex934.top,10,9,3,5,2,4,4374,4374,1,1.547155,1.182880,0.002457,0.106350,0.000000,0.000001
random/ex935.top,10,8,4,6,2,4,1500,1500,1,0.402011,0.304848,0.000751,0.026405,0.000000,0.000001
random/ex936.top,10,8,6,8,2,4,1770,1770,1,0.484261,0.363471,0.000982,0.040487,0.000001,0.000000
random/ex937.top,10,11,5,7,2,4,10428,6354,3,4.296802,3.311828,0.007439,0.264031,0.000001,0.000000
random/ex938.top,10,10,3,6,3,4,19044,5256,9,10.514728,8.513037,0.015639,0.682465,0.000001,0.000000
random/ex939.top,10,11,3,6,3,4,18183,12753,3,10.142174,8.179938,0.013404,0.608725,0.000001,0.000000
random/ex94.top,5,8,5,7,2,4,1005,111,28,0.295024,0.238200,0.000574,0.006456,0.000001,0.000000
random/ex940.top,10,10,4,6,2,4,4325,4325,1,1.679725,1.290857,0.002563,0.108283,0.000001,0.000000
random/ex941.top,10,8,5,7,2,4,786,786,1,0.196500,0.146169,0.000443,0.013806,0.000000,0.000001
random/ex942.top,10,8,7,9,2,4,963,963,1,0.242620,0.180704,0.000488,0.017154,0.000001,0.000000
random/ex943.top,10,8,5,7,2,4,1729,1729,1,0.514023,0.402062,0.000912,0.031737,0.000001,0.000000
random/ex944.top,10,13,3,5,2,4,53583,24840,9,63.203534,55.626454,0.057549,2.312395,0.000001,0.000000
random/ex945.top,10,12,3,5,2,4,52497,14094,9,62.636824,56.115884,0.070852,1.884653,0.000001,0.000000
random/ex946.top,10,9,5,7,2,4,7356,3471,4,2.823690,2.235994,0.004274,0.177199,0.000000,0.000001
random/ex947.top,10,9,5,7,2,4,1746,1746,1,0.532801,0.396926,0.001021,0.036432,0.000001,0.000000
random/ex948.top,10,8,4,6,2,4,1155,1155,1,0.312455,0.236434,0.000561,0.020684,0.000000,0.000001
random/ex949.top,10,9,5,7,2,4,1402,1402,1,0.397807,0.293473,0.000726,0.027323,0.000001,0.000000
random/ex95.top,5,7,8,10,2,4,780,153,9,0.217067,0.179516,0.000365,0.004739,0.000001,0.000000
random/ex950.top,10,8,3,5,2,4,1773,1773,1,0.465848,0.345469,0.000875,0.033973,0.000000,0.000001
random/ex951.top,10,9,3,5,2,4,2415,2415,1,0.786955,0.601409,0.001375,0.049813,0.000001,0.000000
random/ex952.top,10,9,4,6,2,4,2544,2544,1,1.080641,0.887299,0.001382,0.054455,0.000001,0.000000
random/ex953.top,10,8,7,9,2,4,1645,423,5,0.468575,0.361380,0.001023,0.025920,0.000000,0.000000
random/ex954.top,10,8,4,6,2,4,1302,837,3,0.334565,0.249800,0.000701,0.020610,0.000000,0.000001
random/ex955.top,10,7,7,9,2,4,570,570,1,0.123468,0.090404,0.000267,0.008581,0.000001,0.000000
random/ex956.top,10,11,3,5,2,4,23298,13674,3,14.732255,12.384017,0.018301,0.628029,0.000001,0.000000
random/ex957.top,10,10,3,5,2,4,14509,6039,4,7.256081,5.660373,0.037177,0.468814,0.000000,0.000001
random/ex958.top,10,10,4,6,2,4,10002,10002,1,4.243966,3.272274,0.007449,0.328152,0.000001,0.000000
random/ex959.top,10,12,3,5,2,4,51159,22149,6,63.744311,56.928916,0.046616,2.222279,0.000001,0.000001
random/ex96.top,5,7,8,10,2,4,891,204,15,0.266104,0.223315,0.000376,0.005428,0.000000,0.000000
random/ex97.top,5,6,5,7,2,4,633,189,5,0.143750,0.118953,0.000247,0.003426,0.000000,0.000001
random/ex98.top,5,7,7,9,2,4,684,210,6,0.160904,0.129598,0.000303,0.004033,0.000001,0.000000
random/ex99.top,5,6,8,10,2,4,186,111,4,0.040591,0.033047,0.000075,0.001153,0.000000,0.000001
